20190800|201908CIMP08-000001|M08-000001|29/05/2019||91|||190500095||6|20603425091|EVERGREEN SHIPPING AGENCY S.A.C.|0.00|0.00|0.00|0.00|0.00|0.00|2684.00|0.00|0.00|0.00|2684.00|USD|3.355||||||||||||||||1|
20190800|201908CIMP08-000006|M08-000006|16/08/2019||91|||190800062||6|20603425091|EVERGREEN SHIPPING AGENCY S.A.C.|0.00|0.00|0.00|0.00|0.00|0.00|1697.00|0.00|0.00|0.00|1697.00|USD|3.394||||||||||||||||1|
20190800|201908CIMP08-000007|M08-000007|08/08/2019||91|||190719917||0|83235013|HAPAG-LLOYD|0.00|0.00|0.00|0.00|0.00|0.00|75.00|0.00|0.00|0.00|75.00|PEN|||||||||||||||||1|
20190800|201908CIMP09-000001|M09-000001|20/08/2019||91|190820||1||0||BESTMAKINA|0.00|0.00|0.00|0.00|0.00|0.00|1329.68|0.00|0.00|0.00|1329.68|USD|3.386||||||||||||||||1|
20190800|201908PMOV 08-000001|M08-000001|26/07/2019||03|0002||00002225||6|10293982541|YÑO DE RODRIGUEZ ELVIRA|0.00|0.00|0.00|0.00|0.00|0.00|15.00|0.00|0.00|0.00|15.00|PEN|||||||||||||||||1|
20190800|201908PMOV 08-000002|M08-000002|26/07/2019||03|0002||00001519||6|10293038151|LIMA QUISPE ROSA RUFINA|0.00|0.00|0.00|0.00|0.00|0.00|12.00|0.00|0.00|0.00|12.00|PEN|||||||||||||||||1|
20190800|201908PMOV 08-000003|M08-000003|07/08/2019||03|0002||00005166||6|10292523306|LUIS BELTRAN DELGADO HUAMANI|0.00|0.00|0.00|0.00|0.00|0.00|8.00|0.00|0.00|0.00|8.00|PEN|||||||||||||||||1|
20190800|201908PMOV 08-000004|M08-000004|22/07/2019||03|0002||00005151||6|10292523306|LUIS BELTRAN DELGADO HUAMANI|0.00|0.00|0.00|0.00|0.00|0.00|31.50|0.00|0.00|0.00|31.50|PEN|||||||||||||||||1|
20190800|201908PMOV 08-000005|M08-000005|19/07/2019||03|0002||00005147||6|10292523306|LUIS BELTRAN DELGADO HUAMANI|0.00|0.00|0.00|0.00|0.00|0.00|10.50|0.00|0.00|0.00|10.50|PEN|||||||||||||||||1|
20190800|201908PMOV 08-000006|M08-000006|20/08/2019||01|0001||00009391||6|10293598121|CARDENAS DE MANTILLA ROSA GLADIS|0.00|0.00|0.00|0.00|0.00|0.00|20.00|0.00|0.00|0.00|20.00|PEN|||||||||||||||||1|
20190800|201908PMOV 08-000007|M08-000007|14/08/2019||03|0001||00001064||6|10258445029|BARRETO VELEZ LUZ SARA|0.00|0.00|0.00|0.00|0.00|0.00|11.00|0.00|0.00|0.00|11.00|PEN|||||||||||||||||1|
20190800|201908PMOV 08-000008|M08-000008|19/08/2019||03|0002||00000056||6|10296732449|CUTIPA MARAZA LUCIANO JUAN|0.00|0.00|0.00|0.00|0.00|0.00|8.00|0.00|0.00|0.00|8.00|PEN|||||||||||||||||1|
20190800|201908PMOV 08-000009|M08-000009|14/08/2019||03|0002||00005176||6|10292523306|LUIS BELTRAN DELGADO HUAMANI|0.00|0.00|0.00|0.00|0.00|0.00|10.50|0.00|0.00|0.00|10.50|PEN|||||||||||||||||1|
20190800|201908PMOV 08-000010|M08-000010|27/08/2019||03|0001||00009206||6|10293598121|CARDENAS DE MANTILLA ROSA GLADIS|0.00|0.00|0.00|0.00|0.00|0.00|80.00|0.00|0.00|0.00|80.00|PEN|||||||||||||||||1|
20190800|201908PMOV08-000010|M08-000010|31/07/2019||00|0PLL||00000117||0|00000000001|PLANILLA DE MOVILIDAD|0.00|0.00|0.00|0.00|0.00|0.00|220.00|0.00|0.00|0.00|220.00|PEN|||||||||||||||||1|
20190800|201908PMOV 08-000011|M08-000011|27/08/2019||03|0001||00000615||6|10745006464|QUISPE AGUILAR RONALD ARIEL|0.00|0.00|0.00|0.00|0.00|0.00|11.00|0.00|0.00|0.00|11.00|PEN|||||||||||||||||1|
20190800|201908PMOV08-000011|M08-000011|31/07/2019||00|0PLL||00000118||0|00000000001|PLANILLA DE MOVILIDAD|0.00|0.00|0.00|0.00|0.00|0.00|250.00|0.00|0.00|0.00|250.00|PEN|||||||||||||||||1|
20190800|201908PMOV 08-000012|M08-000012|27/08/2019||03|0001||00000618||6|10745006464|QUISPE AGUILAR RONALD ARIEL|0.00|0.00|0.00|0.00|0.00|0.00|11.00|0.00|0.00|0.00|11.00|PEN|||||||||||||||||1|
20190800|201908PMOV08-000012|M08-000012|05/06/2019||00|0PLL||00000119||0|00000000001|PLANILLA DE MOVILIDAD|0.00|0.00|0.00|0.00|0.00|0.00|20.00|0.00|0.00|0.00|20.00|PEN|||||||||||||||||1|
20190800|201908PMOV 08-000013|M08-000013|27/08/2019||03|0001||00014040||6|10295992943|PARQUI ALARCON DEMETRIO|0.00|0.00|0.00|0.00|0.00|0.00|12.00|0.00|0.00|0.00|12.00|PEN|||||||||||||||||1|
20190800|201908PMOV08-000013|M08-000013|07/08/2019||00|0PLL||00000120||0|00000000001|PLANILLA DE MOVILIDAD|0.00|0.00|0.00|0.00|0.00|0.00|75.00|0.00|0.00|0.00|75.00|PEN|||||||||||||||||1|
20190800|201908PMOV 08-000014|M08-000014|26/08/2019||03|0001||00001718||6|10713212747|VARGAS ZAPANA EVELYN FLOR|0.00|0.00|0.00|0.00|0.00|0.00|64.00|0.00|0.00|0.00|64.00|PEN|||||||||||||||||1|
20190800|201908PMOV08-000014|M08-000014|03/08/2019||00|0PLL||00000121||0|00000000001|PLANILLA DE MOVILIDAD|0.00|0.00|0.00|0.00|0.00|0.00|31.00|0.00|0.00|0.00|31.00|PEN|||||||||||||||||1|
20190800|201908PMOV 08-000015|M08-000015|24/07/2019||03|0002||00005185||6|10292523306|LUIS BELTRAN DELGADO HUAMANI|0.00|0.00|0.00|0.00|0.00|0.00|10.50|0.00|0.00|0.00|10.50|PEN|||||||||||||||||1|
20190800|201908PMOV 08-000016|M08-000016|19/08/2019||03|0001||00011835||6|10046232556|LAURA JOVE AGREPINA|0.00|0.00|0.00|0.00|0.00|0.00|49.00|0.00|0.00|0.00|49.00|PEN|||||||||||||||||1|
20190800|201908PMOV08-000016|M08-000016|03/08/2019||00|0PLL||00000122||0|00000000001|PLANILLA DE MOVILIDAD|0.00|0.00|0.00|0.00|0.00|0.00|65.00|0.00|0.00|0.00|65.00|PEN|||||||||||||||||1|
20190800|201908PMOV 08-000017|M08-000017|23/08/2019||03|0002||00005184||6|10292523306|LUIS BELTRAN DELGADO HUAMANI|0.00|0.00|0.00|0.00|0.00|0.00|10.50|0.00|0.00|0.00|10.50|PEN|||||||||||||||||1|
20190800|201908PMOV 08-000018|M08-000018|22/08/2019||03|0001||00000106||6|10447952314|CCORIMANYA CHOQUE LUZ MARINA|0.00|0.00|0.00|0.00|0.00|0.00|49.00|0.00|0.00|0.00|49.00|PEN|||||||||||||||||1|
20190800|201908PMOV08-000018|M08-000018|08/07/2019||01|F004||00046057||6|20385817836|DHL EXPRESS ADUANAS PERU S.A.C.|290.00|52.20|0.00|0.00|0.00|0.00|0.00|0.00|0.00|0.00|342.20|PEN|||||||||||||||||1|
20190800|201908PMOV 08-000019|M08-000019|19/08/2019||03|0001||00000253||6|10294890497|CCOATA OLLACHICA VICTOR JOSE|0.00|0.00|0.00|0.00|0.00|0.00|10.50|0.00|0.00|0.00|10.50|PEN|||||||||||||||||1|
20190800|201908PMOV 08-000020|M08-000020|19/08/2019||03|0001||00001726||6|10713212747|VARGAS ZAPANA EVELYN FLOR|0.00|0.00|0.00|0.00|0.00|0.00|64.00|0.00|0.00|0.00|64.00|PEN|||||||||||||||||1|
20190800|201908PMOV08-000020|M08-000020|25/08/2019||00|0PLL||00000123||0|00000000001|PLANILLA DE MOVILIDAD|0.00|0.00|0.00|0.00|0.00|0.00|43.00|0.00|0.00|0.00|43.00|PEN|||||||||||||||||1|
20190800|201908PMOV 08-000021|M08-000021|28/08/2019||03|0001||00000319||6|10295304389|ZACONET MALAGA EMILIA ELADIA|0.00|0.00|0.00|0.00|0.00|0.00|10.50|0.00|0.00|0.00|10.50|PEN|||||||||||||||||1|
20190800|201908PMOV08-000021|M08-000021|31/08/2019||00|0PLL||00000124||0|00000000001|PLANILLA DE MOVILIDAD|0.00|0.00|0.00|0.00|0.00|0.00|210.00|0.00|0.00|0.00|210.00|PEN|||||||||||||||||1|
20190800|201908PMOV 08-000022|M08-000022|19/08/2019||03|0001||00002426||6|10409608626|CATASI CASTRO SERGIO MARTIN|0.00|0.00|0.00|0.00|0.00|0.00|10.00|0.00|0.00|0.00|10.00|PEN|||||||||||||||||1|
20190800|201908PMOV08-000022|M08-000022|20/08/2019||00|0PLL||00000125||0|00000000001|PLANILLA DE MOVILIDAD|0.00|0.00|0.00|0.00|0.00|0.00|10.00|0.00|0.00|0.00|10.00|PEN|||||||||||||||||1|
20190800|201908PMOV08-000023|M08-000023|19/08/2019||00|0PLL||00000126||0|00000000001|PLANILLA DE MOVILIDAD|0.00|0.00|0.00|0.00|0.00|0.00|30.00|0.00|0.00|0.00|30.00|PEN|||||||||||||||||1|
20190800|201908PMOV08-000024|M08-000024|16/08/2019||00|0PLL||00000127||0|00000000001|PLANILLA DE MOVILIDAD|0.00|0.00|0.00|0.00|0.00|0.00|14.50|0.00|0.00|0.00|14.50|PEN|||||||||||||||||1|
20190800|201908PMOV08-000025|M08-000025|19/08/2019||00|0PLL||00000128||0|00000000001|PLANILLA DE MOVILIDAD|0.00|0.00|0.00|0.00|0.00|0.00|8.00|0.00|0.00|0.00|8.00|PEN|||||||||||||||||1|
20190800|201908PMOV08-000034|M08-000034|31/08/2019||00|0PLL||00000129||0|00000000001|PLANILLA DE MOVILIDAD|0.00|0.00|0.00|0.00|0.00|0.00|36.00|0.00|0.00|0.00|36.00|PEN|||||||||||||||||1|
20190800|201908PMOV 10-000009|M10-000009|01/08/2019||03|0003||00001254||6|10436496155|PARI PARI LUZ EVA|0.00|0.00|0.00|0.00|0.00|0.00|10.00|0.00|0.00|0.00|10.00|PEN|||||||||||||||||1|
20190800|201908RECIB08-000613|M08-000613|01/08/2019||01|F001||00015992||6| 20454944543|TECNICA SOCIEDAD ANONIMA CERRADA|106.78|19.22|0.00|0.00|0.00|0.00|0.00|0.00|0.00|0.00|126.00|PEN|||||||||||||||||1|
20190800|201908RECIB08-000614|M08-000614|02/08/2019||01|0001||00016043||6|10292192466|COILA CARDENAS ADELAIDA LOURDES|1942.58|349.67|0.00|0.00|0.00|0.00|0.00|0.00|0.00|0.00|2292.25|PEN|||||||||||||||||1|
20190800|201908RECIB08-000712|M08-000712|24/07/2019||01|F007||00086450||6|20498456856|EMPRESA DE TRANSPORTES Y SERVICIOS GENERALES TRANSMOTAR S.A.C.|383.90|69.10|0.00|0.00|0.00|0.00|0.00|0.00|0.00|0.00|453.00|PEN|||||||14/08/2019|F007-00086450|||||||||1|
20190800|201908RECIB08-000723|M08-000723|01/07/2019||01|F040||00006506||6|20454073143|LA POSITIVA VIDA SEGUROS Y REASEGUROS S.A.|314.52|56.61|0.00|0.00|0.00|0.00|0.00|0.00|0.00|0.00|371.13|PEN|||||||||||||||||1|
20190800|201908RECIB08-000725|M08-000725|31/07/2019||01|F050||00432572||6|20332970411|PACIFICO COMPAÑIA DE SEGUROS Y REASEGUROS |95.77|17.24|0.00|0.00|0.00|0.00|0.00|0.00|0.00|0.00|113.01|PEN|||||||||||||||||1|
20190800|201908RECIB08-000726|M08-000726|30/07/2019||01|F050||00432574||6|20332970411|PACIFICO COMPAÑIA DE SEGUROS Y REASEGUROS |102.96|18.53|0.00|0.00|0.00|0.00|0.00|0.00|0.00|0.00|121.49|PEN|||||||||||||||||1|
20190800|201908RECIB08-000727|M08-000727|06/06/2019||01|F038||00002171||6|20601978572|LA POSITIVA S.A. ENTIDAD PRESTADORA DE SALUD|287.18|51.69|0.00|0.00|0.00|0.00|0.00|0.00|0.00|0.00|338.87|PEN|||||||||||||||||1|
20190800|201908RECIB08-000728|M08-000728|06/06/2019||01|F038||00002326||6|20454073143|LA POSITIVA VIDA SEGUROS Y REASEGUROS S.A.|295.80|53.24|0.00|0.00|0.00|0.00|0.00|0.00|0.00|0.00|349.04|PEN|||||||||||||||||1|
20190800|201908RECIB08-000729|M08-000729|31/07/2019||01|F040||00007123||6|20601978572|LA POSITIVA S.A. ENTIDAD PRESTADORA DE SALUD|305.36|54.96|0.00|0.00|0.00|0.00|0.00|0.00|0.00|0.00|360.32|PEN|||||||||||||||||1|
20190800|201908RECIB08-000730|M08-000730|06/08/2019||01|0001||00016046||6|10292192466|COILA CARDENAS ADELAIDA LOURDES|6841.30|1231.43|0.00|0.00|0.00|0.00|0.00|0.00|0.00|0.00|8072.73|PEN|||||||||||||||||1|
20190800|201908RECIB08-000731|M08-000731|08/08/2019||01|F002||00000067||6|20125118501|MICRO AMERICA SISTEMAS Y SERVICIOS S.A.|1863.82|335.49|0.00|0.00|0.00|0.00|0.00|0.00|0.00|0.00|2199.31|USD|3.382||||||||||||||||1|
20190800|201908RECIB08-000732|M08-000732|01/08/2019||01|FL03||00017603||6|20100047218|BANCO DE CREDITO DEL PERU S.A.|69239.61|12463.14|0.00|0.00|0.00|0.00|0.00|0.00|0.00|0.00|81702.75|USD|3.310||||||||||||||||1|
20190800|201908RECIB08-000733|M08-000733|05/08/2019|05/08/2019|14|0001||54035366||6|20100188628|SOCIEDAD ELECTRICA DEL SUR OESTE S.A.|19100.11|3438.00|0.00|0.00|0.00|0.00|0.00|0.00|0.00|0.00|22538.11|PEN|||||||||||||||||1|
20190800|201908RECIB08-000734|M08-000734|01/08/2019|01/08/2019|14|0001||53953887||6|20100188628|SOCIEDAD ELECTRICA DEL SUR OESTE S.A.|1042.42|187.64|0.00|0.00|0.00|0.00|0.00|0.00|0.00|0.00|1230.06|PEN|||||||||||||||||1|
20190800|201908RECIB08-000735|M08-000735|09/08/2019||01|F001||00001124||6| 20456022651|RENEGADO TRANS S.R.L.|64.83|11.67|0.00|0.00|0.00|0.00|0.00|0.00|0.00|0.00|76.50|PEN|||||||||||||||||1|
20190800|201908RECIB08-000736|M08-000736|05/08/2019||01|F001||00000922||6|20523522401|CORPORACION VIANOR S.A.C.|2408.85|433.61|0.00|0.00|0.00|0.00|0.00|0.00|0.00|0.00|2842.46|USD|3.346||||||||||||||||1|
20190800|201908RECIB08-000737|M08-000737|12/08/2019||01|0001||00004436||6|20456306099|E&B TRANSPORTES ORSUR E.I.R.L.|677.97|122.03|0.00|0.00|0.00|0.00|0.00|0.00|0.00|0.00|800.00|PEN|||||||13/08/2019|0001-00004436|||||||||1|
20190800|201908RECIB08-000738|M08-000738|09/08/2019||01|F001||00001210||6|20141637941|UNIVERSIDAD CATOLICA DE SANTA MARIA |33820.00|6087.60|0.00|0.00|0.00|0.00|0.00|0.00|0.00|0.00|39907.60|USD|3.382||||||13/08/2019|F001-00001210|||||||||1|
20190800|201908RECIB08-000739|M08-000739|06/06/2019||01|F001||00000955||6| 20456022651|RENEGADO TRANS S.R.L.|274.66|49.44|0.00|0.00|0.00|0.00|0.00|0.00|0.00|0.00|324.10|PEN|||||||||||||||||1|
20190800|201908RECIB08-000740|M08-000740|26/08/2019||01|0001||00001815||6|20539553985|GAVILANES DEL SUR MULTISERVICIOS E.I.R.L|88.98|16.02|0.00|0.00|0.00|0.00|0.00|0.00|0.00|0.00|105.00|PEN|||||||||||||||||1|
20190800|201908RECIB08-000741|M08-000741|12/08/2019||01|F007||00089068||6|20498456856|EMPRESA DE TRANSPORTES Y SERVICIOS GENERALES TRANSMOTAR S.A.C.|525.42|94.58|0.00|0.00|0.00|0.00|0.00|0.00|0.00|0.00|620.00|PEN|||||||05/09/2019|F007-00089068|||||||||1|
20190800|201908RECIB08-000742|M08-000742|10/08/2019|10/08/2019|14|0004||993349742||6|20100017491|TELEFONICA DEL PERU S.A.A.|65.51|11.79|0.00|0.00|0.00|0.00|0.00|0.00|0.00|0.00|77.30|PEN|||||||||||||||||1|
20190800|201908RECIB08-000743|M08-000743|18/06/2019|18/06/2019|14|0810||390944||6|20100017491|TELEFONICA DEL PERU S.A.A.|233.56|42.04|0.00|0.00|0.00|0.00|0.00|0.00|0.00|0.00|275.60|PEN|||||||||||||||||1|
20190800|201908RECIB08-000744|M08-000744|22/08/2019|22/08/2019|14|0001||246355244||6|20106897914|ENTEL PERU S.A.C.|645.93|116.27|0.00|0.00|0.00|0.00|307.70|0.00|0.00|0.00|1069.90|PEN|||||||||||||||||1|
20190800|201908RECIB08-000745|M08-000745|16/08/2019||01|0001||00001896||6|20556129518|INGENIERIA SERVICIOS CONSTRUCCION Y REPRESENTACIONES S.A.C. _ INSECORE S.A.C.|684.16|123.13|0.00|0.00|0.00|0.00|0.00|0.00|0.00|0.00|807.29|USD|3.394||||||||||||||||1|
20190800|201908RECIB08-000746|M08-000746|28/08/2019||01|0001||00004451||6|20456306099|E&B TRANSPORTES ORSUR E.I.R.L.|677.97|122.03|0.00|0.00|0.00|0.00|0.00|0.00|0.00|0.00|800.00|PEN|||||||04/09/2019|0001-00004451|||||||||1|
20190800|201908RECIB08-000747|M08-000747|16/08/2019||01|F040||00073680||6|20162574435|AREQUIPA EXPRESS COMITE 4 S.C.R.L.|25.42|4.58|0.00|0.00|0.00|0.00|0.00|0.00|0.00|0.00|30.00|PEN|||||||||||||||||1|
20190800|201908RECIB08-000748|M08-000748|20/08/2019||01|0001||00002516||6|20559179818|MAYRA & J AQP E.I.R.L.|16.95|3.05|0.00|0.00|0.00|0.00|0.00|0.00|0.00|0.00|20.00|PEN|||||||||||||||||1|
20190800|201908RECIB08-000749|M08-000749|20/08/2019||01|0001||00060341||6|20498619232|JM REPRESENTACIONES E.I.R.L.|33.90|6.10|0.00|0.00|0.00|0.00|0.00|0.00|0.00|0.00|40.00|PEN|||||||||||||||||1|
20190800|201908RECIB08-000750|M08-000750|20/08/2019||01|0001||00006388||6|10408398733|MARIANELA ATENCIO LUNA|44.07|7.93|0.00|0.00|0.00|0.00|0.00|0.00|0.00|0.00|52.00|PEN|||||||||||||||||1|
20190800|201908RECIB08-000751|M08-000751|20/08/2019||01|F001||00000463||6|20604292744|SEGUSUR PERU E.I.R.L.|21.19|3.81|0.00|0.00|0.00|0.00|0.00|0.00|0.00|0.00|25.00|PEN|||||||||||||||||1|
20190800|201908RECIB08-000752|M08-000752|16/08/2019||01|F001||00000334||6|10296455500|ROMERO RODRIGUEZ JORGE ALBERTO|28.81|5.19|0.00|0.00|0.00|0.00|0.00|0.00|0.00|0.00|34.00|PEN|||||||||||||||||1|
20190800|201908RECIB08-000753|M08-000753|16/08/2019||01|0001||00009732||6|10294444098|ABARCA QUISPE NARCISA|30.51|5.49|0.00|0.00|0.00|0.00|0.00|0.00|0.00|0.00|36.00|PEN|||||||||||||||||1|
20190800|201908RECIB08-000754|M08-000754|16/08/2019||01|0001||00003518||6|20602389767|REPRESENTACIONES ZENTENO S.A.C. - REPREZENT S.A.C.|7.20|1.30|0.00|0.00|0.00|0.00|0.00|0.00|0.00|0.00|8.50|PEN|||||||||||||||||1|
20190800|201908RECIB08-000755|M08-000755|13/08/2019||01|0002||00004312||6|10295423281|MAMANI MAMANI HILDA|49.15|8.85|0.00|0.00|0.00|0.00|0.00|0.00|0.00|0.00|58.00|PEN|||||||||||||||||1|
20190800|201908RECIB08-000756|M08-000756|13/08/2019||01|0001||00023100||6|20413228965|PERNOS Y TORNILLOS DEL SUR E.I.R.L.|10.17|1.83|0.00|0.00|0.00|0.00|0.00|0.00|0.00|0.00|12.00|PEN|||||||||||||||||1|
20190800|201908RECIB08-000757|M08-000757|13/08/2019||01|0001||00006361||6|10408398733|MARIANELA ATENCIO LUNA|23.72|4.28|0.00|0.00|0.00|0.00|0.00|0.00|0.00|0.00|28.00|PEN|||||||||||||||||1|
20190800|201908RECIB08-000758|M08-000758|13/08/2019||01|0001||00034674||6|10404247781|ROJAS MAMANI ELENA|54.24|9.76|0.00|0.00|0.00|0.00|0.00|0.00|0.00|0.00|64.00|PEN|||||||||||||||||1|
20190800|201908RECIB08-000759|M08-000759|13/08/2019||01|0001||00003118||6|20602144438|AQP WELDING EMPRESA INDIVIDUAL DE RESPONSABILIDAD LIMITADA|67.80|12.20|0.00|0.00|0.00|0.00|0.00|0.00|0.00|0.00|80.00|PEN|||||||||||||||||1|
20190800|201908RECIB08-000760|M08-000760|07/08/2019||01|0001||00000029||6|10488837503|GALDOS VILLEGAS SUSAM|51.69|9.31|0.00|0.00|0.00|0.00|0.00|0.00|0.00|0.00|61.00|PEN|||||||||||||||||1|
20190800|201908RECIB08-000761|M08-000761|02/08/2019||01|E001||00007666||6|20539680588|INVERSIONES PUREZA S.A.C.|33.05|5.95|0.00|0.00|0.00|0.00|0.00|0.00|0.00|0.00|39.00|PEN|||||||||||||||||1|
20190800|201908RECIB08-000762|M08-000762|26/07/2019||01|F005||00018630||6|20498385223|TABLEROS MULTIPLES Y SERVICIOS E.I.R.L.|33.90|6.10|0.00|0.00|0.00|0.00|0.00|0.00|0.00|0.00|40.00|PEN|||||||||||||||||1|
20190800|201908RECIB08-000763|M08-000763|26/07/2019||01|F197||00005763||6|20112273922|TIENDAS DEL MEJORAMIENTO DEL HOGAR S.A.|22.80|4.10|0.00|0.00|0.00|0.00|0.00|0.00|0.00|0.00|26.90|PEN|||||||||||||||||1|
20190800|201908RECIB08-000764|M08-000764|26/07/2019||01|F003||00000274||6|20539305574|VISION FENIX|25.42|4.58|0.00|0.00|0.00|0.00|0.00|0.00|0.00|0.00|30.00|PEN|||||||||||||||||1|
20190800|201908RECIB08-000765|M08-000765|26/07/2019||01|0001||00000702||6|10474857854|NUÑEZ BERMUDEZ JUANA VITALIANA|26.27|4.73|0.00|0.00|0.00|0.00|0.00|0.00|0.00|0.00|31.00|PEN|||||||||||||||||1|
20190800|201908RECIB08-000766|M08-000766|28/06/2019||50|235|2019|110199||6|20131312955|SUPERINTENDENCIA NACIONAL DE ADUANAS Y DE ADMINISTRACION TRIBUTARIA - SUNAT|8794.67|1583.04|0.00|0.00|0.00|0.00|0.00|0.00|0.00|0.00|10377.71|PEN|||||||||||||||||1|
20190800|201908RECIB08-000767|M08-000767|01/08/2019||01|0002||00000792||6|20601050341|DECOCOLORS AQP EMPRESA INDIVIDUAL DE RESPONSABILIDAD LIMITADA - DECOCOLORS AQP E.I.R.L.|48.31|8.70|0.00|0.00|0.00|0.00|0.00|0.00|0.00|0.00|57.01|PEN|||||||||||||||||1|
20190800|201908RECIB08-000768|M08-000768|01/08/2019||01|0001||00002854||6|10464666538|PALOMINO HUAHUASONCCO ROMEL OLGER|59.32|10.68|0.00|0.00|0.00|0.00|0.00|0.00|0.00|0.00|70.00|PEN|||||||||||||||||1|
20190800|201908RECIB08-000769|M08-000769|01/08/2019||01|0001||00002855||6|10464666538|PALOMINO HUAHUASONCCO ROMEL OLGER|17.80|3.20|0.00|0.00|0.00|0.00|0.00|0.00|0.00|0.00|21.00|PEN|||||||||||||||||1|
20190800|201908RECIB08-000770|M08-000770|22/07/2019||01|F001||00000512||6|20311786904|SERVICENTRO MIRAFLORES S.R.LTDA|42.37|7.63|0.00|0.00|0.00|0.00|0.00|0.00|0.00|0.00|50.00|PEN|||||||||||||||||1|
20190800|201908RECIB08-000772|M08-000772|19/07/2019||01|0002||00000657||6|20601050341|DECOCOLORS AQP EMPRESA INDIVIDUAL DE RESPONSABILIDAD LIMITADA - DECOCOLORS AQP E.I.R.L.|46.18|8.31|0.00|0.00|0.00|0.00|0.00|0.00|0.00|0.00|54.49|PEN|||||||||||||||||1|
20190800|201908RECIB08-000773|M08-000773|21/08/2019||01|F001||00018552||6|20498141600|ENERGYGAS S.R.L.|42.37|7.63|0.00|0.00|0.00|0.00|0.00|0.00|0.00|0.00|50.00|PEN|||||||||||||||||1|
20190800|201908RECIB08-000775|M08-000775|20/08/2019||01|F214||00247313||6|20517252558|CONCESIONARIA VIAL DEL SUR S.A.- COVISUR S.A.|6.78|1.22|0.00|0.00|0.00|0.00|0.00|0.00|0.00|0.00|8.00|PEN|||||||||||||||||1|
20190800|201908RECIB08-000776|M08-000776|20/08/2019||01|F211||00244173||6|20517252558|CONCESIONARIA VIAL DEL SUR S.A.- COVISUR S.A.|6.78|1.22|0.00|0.00|0.00|0.00|0.00|0.00|0.00|0.00|8.00|PEN|||||||||||||||||1|
20190800|201908RECIB08-000777|M08-000777|19/08/2019||01|0001||00005368||6|20498433643|DISTRIBUIDORA MEDINA DIAZ S.R.L.|152.54|27.46|0.00|0.00|0.00|0.00|0.00|0.00|0.00|0.00|180.00|PEN|||||||||||||||||1|
20190800|201908RECIB08-000778|M08-000778|19/08/2019||01|0001||00007204||6|20602249426|GRUPO COMERCIAL LOS PINOS E.I.R.L.|82.20|14.80|0.00|0.00|0.00|0.00|0.00|0.00|0.00|0.00|97.00|PEN|||||||||||||||||1|
20190800|201908RECIB08-000779|M08-000779|23/08/2019||01|0001||00000662||6|10308582090|ARPI CARI DE HUACALLO HERMILIA|12.00|2.16|0.00|0.00|0.00|0.00|0.00|0.00|0.00|0.00|14.16|PEN|||||||||||||||||1|
20190800|201908RECIB08-000780|M08-000780|30/08/2019||01|FF01||00057065||6|20272612561|SERVICE CLEMENT'S S.R.L.|169.49|30.51|0.00|0.00|0.00|0.00|0.00|0.00|0.00|0.00|200.00|PEN|||||||||||||||||1|
20190800|201908RECIB08-000781|M08-000781|30/08/2019||01|FF01||00057066||6|20272612561|SERVICE CLEMENT'S S.R.L.|296.61|53.39|0.00|0.00|0.00|0.00|0.00|0.00|0.00|0.00|350.00|PEN|||||||||||||||||1|
20190800|201908RECIB08-000782|M08-000782|29/08/2019||01|0006||00020957||6|10295151019|COLLANA DELGADO JUAN ERADIO|81.36|14.64|0.00|0.00|0.00|0.00|0.00|0.00|0.00|0.00|96.00|PEN|||||||||||||||||1|
20190800|201908RECIB08-000783|M08-000783|28/08/2019||01|FZ43||00003306||6|20127765279|COESTI|296.61|53.39|0.00|0.00|0.00|0.00|0.00|0.00|0.00|0.00|350.00|PEN|||||||||||||||||1|
20190800|201908RECIB08-000784|M08-000784|28/08/2019||01|FZ43||00003305||6|20127765279|COESTI|296.61|53.39|0.00|0.00|0.00|0.00|0.00|0.00|0.00|0.00|350.00|PEN|||||||||||||||||1|
20190800|201908RECIB08-000785|M08-000785|27/08/2019||01|F002||00019455||6|20601417236|HALCON GROUP SOCIEDAD ANONIMA CERRADA - HALCON GROUP S.A.C.|127.12|22.88|0.00|0.00|0.00|0.00|0.00|0.00|0.00|0.00|150.00|PEN|||||||||||||||||1|
20190800|201908RECIB08-000786|M08-000786|23/08/2019||01|F001||00001232||6|20498041567|LA FERIA DEL SUR S.A.C.|42.37|7.63|0.00|0.00|0.00|0.00|0.00|0.00|0.00|0.00|50.00|PEN|||||||||||||||||1|
20190800|201908RECIB08-000787|M08-000787|20/08/2019||01|F003||00014435||6|20455311048|PAPELES Y CARTULINAS SOCIEDAD ANONIMA CERRADA - PAYCAR S.A.C.|366.10|65.90|0.00|0.00|0.00|0.00|0.00|0.00|0.00|0.00|432.00|PEN|||||||||||||||||1|
20190800|201908RECIB08-000788|M08-000788|16/08/2019||01|F586||00020849||6|20100049181|TAI LOY S.A.|113.98|20.52|0.00|0.00|0.00|0.00|0.00|0.00|0.00|0.00|134.50|PEN|||||||||||||||||1|
20190800|201908RECIB08-000789|M08-000789|29/08/2019||01|E001||00000165||6|20455309655|EMPRESA DE TRANSPORTES CHILO E.I.R.L.|352.54|63.46|0.00|0.00|0.00|0.00|0.00|0.00|0.00|0.00|416.00|PEN|||||||||||||||||1|
20190800|201908RECIB08-000790|M08-000790|15/08/2019||01|F001||00010110||6|20552950268|SOLUEX PERU SOCIEDAD ANONIMA CERRADA - SOLUEX PERU S.A.C.|36672.37|6601.03|0.00|0.00|0.00|0.00|0.00|0.00|0.00|0.00|43273.40|USD|3.389||||||||||||||||1|
20190800|201908RECIB08-000791|M08-000791|29/08/2019||07|F001||00000370||6|20553429201|POLYROOF SOCIEDAD ANONIMA CERRADA - POLYROOF S.A.C.|-21814.52|-3926.56|0.00|0.00|0.00|0.00|0.00|0.00|0.00|0.00|-25741.08|USD|3.399|31/10/2019|01|F001||00001999|||||||||||1|
20190800|201908RECIB08-000792|M08-000792|16/08/2019||50|145|2019|001521||6|20131312955|SUPERINTENDENCIA NACIONAL DE ADUANAS Y DE ADMINISTRACION TRIBUTARIA - SUNAT|150355.56|27064.00|0.00|0.00|0.00|0.00|0.00|0.00|0.00|0.00|177419.56|PEN|||||||||||||||||1|
20190800|201908RECIB08-000793|M08-000793|20/08/2019||01|F104||00018467||6|20428500475|TERMINAL INTERNACIONAL DEL SUR S.A.|2454.85|441.87|0.00|0.00|0.00|0.00|0.00|0.00|0.00|0.00|2896.72|USD|3.386||||||||||||||||1|
20190800|201908RECIB08-000794|M08-000794|19/08/2019||01|F104||00018435||6|20428500475|TERMINAL INTERNACIONAL DEL SUR S.A.|3978.55|716.14|0.00|0.00|0.00|0.00|0.00|0.00|0.00|0.00|4694.69|USD|3.386||||||||||||||||1|
20190800|201908RECIB08-000795|M08-000795|16/08/2019||01|F501||00007591||6|20507646051|TERMINALES PORTUARIOS PERUANOS SAC|2121.25|381.83|0.00|0.00|0.00|0.00|0.00|0.00|0.00|0.00|2503.08|USD|3.394||||||||||||||||1|
20190800|201908RECIB08-000797|M08-000797|16/08/2019||01|F003||00000986||6|20603425091|EVERGREEN SHIPPING AGENCY S.A.C.|3700.00|666.00|0.00|0.00|0.00|0.00|0.00|0.00|0.00|0.00|4366.00|PEN|||||||||||||||||1|
20190800|201908RECIB08-000800|M08-000800|29/08/2019||01|F025||00004503||6|20463958590|SCHARFF LOGISTICA INTEGRADA S.A.|634.36|114.17|0.00|0.00|0.00|0.00|0.00|0.00|0.00|0.00|748.53|USD|3.399||||||||||||||||1|
20190800|201908RECIB08-000801|M08-000801|26/08/2019||01|E001||00000092||6|20456331522|TRANSPORTES RODO GOMEZ NEYRA E.I.R.L.|5720.34|1029.66|0.00|0.00|0.00|0.00|0.00|0.00|0.00|0.00|6750.00|PEN|||||||||||||||||1|
20190800|201908RECIB08-000802|M08-000802|24/07/2019||01|F001||00002322||6|20602546323|BERAZU S.A.C|2092.40|376.64|0.00|0.00|0.00|0.00|0.00|0.00|0.00|0.00|2469.04|USD|3.292||||||||||||||||1|
20190800|201908RECIB08-000803|M08-000803|29/08/2019||01|F001||00001155||6| 20456022651|RENEGADO TRANS S.R.L.|16.95|3.05|0.00|0.00|0.00|0.00|0.00|0.00|0.00|0.00|20.00|PEN|||||||||||||||||1|
20190800|201908RECIB08-000804|M08-000804|15/08/2019||01|E001||00000108||6|20603116551|V&P CUSTOMS S.A.C.|6032.42|1085.84|0.00|0.00|0.00|0.00|0.00|0.00|0.00|0.00|7118.26|USD|3.389||||||||||||||||1|
20190800|201908RECIB08-000805|M08-000805|05/08/2019||50|118|2019|318065||6|20131312955|SUPERINTENDENCIA NACIONAL DE ADUANAS Y DE ADMINISTRACION TRIBUTARIA - SUNAT|81605.55|14689.00|0.00|0.00|0.00|0.00|0.00|0.00|0.00|0.00|96294.55|PEN|||||||||||||||||1|
20190800|201908RECIB08-000806|M08-000806|29/08/2019||01|F040||00009812||6|20454073143|LA POSITIVA VIDA SEGUROS Y REASEGUROS S.A.|308.60|55.55|0.00|0.00|0.00|0.00|0.00|0.00|0.00|0.00|364.15|PEN|||||||||||||||||1|
20190800|201908RECIB08-000807|M08-000807|29/08/2019||01|F040||00010703||6|20601978572|LA POSITIVA S.A. ENTIDAD PRESTADORA DE SALUD|299.61|53.93|0.00|0.00|0.00|0.00|0.00|0.00|0.00|0.00|353.54|PEN|||||||||||||||||1|
20190800|201908RECIB08-000808|M08-000808|29/08/2019||01|F050||00447725||6|20332970411|PACIFICO COMPAÑIA DE SEGUROS Y REASEGUROS |148.15|26.67|0.00|0.00|0.00|0.00|0.00|0.00|0.00|0.00|174.82|PEN|||||||||||||||||1|
20190800|201908RECIB08-000809|M08-000809|29/08/2019||01|F050||00447727||6|20332970411|PACIFICO COMPAÑIA DE SEGUROS Y REASEGUROS |154.95|27.89|0.00|0.00|0.00|0.00|0.00|0.00|0.00|0.00|182.84|PEN|||||||||||||||||1|
20190800|201908RECIB08-000810|M08-000810|01/08/2019||01|F001||00831953||6|20517930998|PROSEGUR ACTIVA PERU S.A.|105.93|19.07|0.00|0.00|0.00|0.00|0.00|0.00|0.00|0.00|125.00|PEN|||||||||||||||||1|
20190800|201908RECIB08-000811|M08-000811|01/08/2019||01|F001||00831952||6|20517930998|PROSEGUR ACTIVA PERU S.A.|105.93|19.07|0.00|0.00|0.00|0.00|0.00|0.00|0.00|0.00|125.00|PEN|||||||||||||||||1|
20190800|201908RECIB08-000845|M08-000845|19/08/2019|19/08/2019|14|0810||438109||6|20100017491|TELEFONICA DEL PERU S.A.A.|233.56|42.04|0.00|0.00|0.00|0.00|0.00|0.00|0.00|0.00|275.60|PEN|||||||||||||||||1|
20190800|201908RECIB08-000896|M08-000896|19/08/2019||01|E001||00000156||6|20455309655|EMPRESA DE TRANSPORTES CHILO E.I.R.L.|6610.17|1189.83|0.00|0.00|0.00|0.00|0.00|0.00|0.00|0.00|7800.00|PEN|||||||||||||||||1|
20190800|201908RECIB08-000898|M08-000898|30/06/2019||01|F205||00175660||6|20101128777|DHL EXPRESS PERÚ S.A.C.|842.44|151.64|0.00|0.00|0.00|0.00|0.00|0.00|0.00|0.00|994.08|PEN|||||||||||||||||1|
20190800|201908RECIB09-000825|M09-000825|27/08/2019||01|0001||00001394||6|20547093586|UTEMP S.R.L.|84.48|15.21|0.00|0.00|0.00|0.00|0.00|0.00|0.00|0.00|99.69|USD|3.379||||||||||||||||1|
20190800|201908RECIB09-000900|M09-000900|16/08/2019||01|E001||00000208||6|20602895034|4FV INTEGRADORES LOGISTICOS S.A.C.|169.70|30.55|0.00|0.00|0.00|0.00|0.00|0.00|0.00|0.00|200.25|USD|3.394||||||||||||||||1|
20190800|201908RECIB10-001007|M10-001007|01/08/2019||01|F001||00000995||6|20559251276|PLASTICOS SANTOS S.H.E.I.R.L.|34.75|6.26|0.00|0.00|0.00|0.00|0.00|0.00|0.00|0.00|41.01|PEN|||||||||||||||||1|
