Ubicación Origen,Ubicación Destino,Almacén,T. OP,Categoria,Codigo P.,Uni.,Producto,Fecha Alb.,Fecha,Periodo,Doc. Almacén,T. Doc.,Serie,Nro. Documento,Proveedor,Ingreso,Salida,Saldo F,C.A.,Debe,Haber,Saldo V.,CP,Cuenta factura,Cuenta producto,Cta. Analitica,Pedido de Compra,Licitacion
Partner Locations/Vendors,Physical Locations/Indep/Existencias,Indep/Existencias,02,CRISTAL,001.001.003.008,M2,"Cristal Gris  6mm,China",2018-11-09,2018-11-09,11/2018,WH/IN/00017,,,"",ABASTECEDORA ALIMENTICIA SAC,7.810440,0,7.810440,19.2050640000000000,150.00000006816,0,150.00000006816,19.2050640000000000,0,,,,
Partner Locations/Vendors,Physical Locations/Indep/Existencias,Indep/Existencias,02,CRISTAL,001.001.003.008,M2,"Cristal Gris  6mm,China",2018-11-12,2018-11-12,11/2018,WH/IN/00018,,,"",POLYROOF S.A.C.,176.550000,0,184.360440,0.00000000000000000000,0,0,150.00000006816,0.81362357384349918019,0,,,,
Partner Locations/Vendors,Physical Locations/Indep/Existencias,Indep/Existencias,02,CRISTAL,001.001.003.008,M2,"Cristal Gris  6mm,China",2018-11-13,2018-11-13,11/2018,WH/IN/00021,,,"",CRISTALES Y VIDRIOS DEL PERU S.A.C. ,141.240000,0,325.600440,0.00000000000000000000,0,0,150.00000006816,0.46068733834684007184,0,,,,
,Physical Locations/Indep/Existencias,Indep/Existencias,00,CRISTAL,001.001.003.008,M2,"Cristal Gris  6mm,China",,2018-11-13,11/2018,"",,"",PO00033,TRANSPORTE LOS CRISTALES S.A.C.,0,0,325.600440,1.6891869067135167,400,0,550.00000006816,1.6891869067135167,0,,,,
Physical Locations/Indep/Existencias,Partner Locations/Customers,Indep/Existencias,01,CRISTAL,001.001.003.008,M2,"Cristal Gris  6mm,China",2018-11-13,2018-11-13,11/2018,WH/OUT/00027,,,"",ABASTECEDORA ALIMENTICIA SAC,0,1059.300000,-733.699560,1.6891869067135167,0,1789.3556902816282403100000,-1239.3556902134682403100000,0,0,,,,
Partner Locations/Vendors,Physical Locations/Indep/Existencias,Indep/Existencias,02,CRISTAL,001.001.003.008,M2,"Cristal Gris  6mm,China",2018-11-19,2018-11-19,11/2018,WH/IN/00027,,,"",ABASTECEDORA ALIMENTICIA SAC,3531.000000,0,2797.300440,21.2404420000000000,75000.000702,0,73760.6450117865317596900000,26.3685101382197372262559,0,,,,
,Physical Locations/Indep/Existencias,Indep/Existencias,00,CRISTAL,001.001.003.008,M2,"Cristal Gris  6mm,China",,2018-11-19,11/2018,"",,"",PO00037,TRANSPORTE LOS CRISTALES S.A.C.,0,0,2797.300440,26.5115051466500794457709,400,0,74160.6450117865317596900000,26.5115051466500794457709,0,,,,
,Physical Locations/Indep/Existencias,Indep/Existencias,00,CRISTAL,001.001.003.008,M2,"Cristal Gris  6mm,China",,2018-11-19,11/2018,"",,"",PO00037,TRANSPORTE LOS CRISTALES S.A.C.,0,0,2797.300440,26.6545001550804216652860,400,0,74560.6450117865317596900000,26.6545001550804216652860,0,,,,
,Physical Locations/Indep/Existencias,Indep/Existencias,00,CRISTAL,001.001.003.008,M2,"Cristal Gris  6mm,China",,2018-11-19,11/2018,"",,"",PO00037,TRANSPORTE LOS CRISTALES S.A.C.,0,0,2797.300440,26.7974951635107638848010,400,0,74960.6450117865317596900000,26.7974951635107638848010,0,,,,
Partner Locations/Vendors,Physical Locations/Indep/Existencias,Indep/Existencias,02,CRISTAL,001.001.003.008,M2,"Cristal Gris  6mm,China",2018-12-03,2018-12-03,12/2018,WH/IN/00030,,,"",ABASTECEDORA ALIMENTICIA SAC,353.100000,0,3150.400440,21.2392677620000000,7499.5854467622,0,82460.2304585487317596900000,26.1745235340776970433924,0,,,,
,Physical Locations/Indep/Existencias,Indep/Existencias,00,CRISTAL,001.001.003.008,M2,"Cristal Gris  6mm,China",,2018-12-03,12/2018,"",,0005,00000898,TRANSPORTE LOS CRISTALES S.A.C.,0,0,3150.400440,27.8187640357708722766970,5180.016,0,87640.2464585487317596900000,27.8187640357708722766970,0,,,,
Partner Locations/Vendors,Physical Locations/Indep/Existencias,Indep/Existencias,02,CRISTAL,001.001.003.008,M2,"Cristal Gris  6mm,China",2018-12-07,2018-12-07,12/2018,WH/IN/00031,,,"",3JG SERVICIOS GENERALES S.A.C.,105.930000,0,3256.330440,7.0801470000000000,749.99997171,0,88390.2464302587317596900000,27.1441268197151182727297,0,,,,
,Physical Locations/Indep/Existencias,Indep/Existencias,00,CRISTAL,001.001.003.008,M2,"Cristal Gris  6mm,China",,2018-12-10,12/2018,"",,0002,00002222,EMPRESA DE TRANSPORTES CHILO E.I.R.L.,0,0,3256.330440,27.1594815114214059184024,49.99995,0,88440.2463802587317596900000,27.1594815114214059184024,0,,,,
Partner Locations/Vendors,Physical Locations/Indep/Existencias,Indep/Existencias,02,CRISTAL,001.001.003.008,M2,"Cristal Gris  6mm,China",2018-12-11,2018-12-11,12/2018,WH/IN/00033,,,"",3JG SERVICIOS GENERALES S.A.C.,70.620000,0,3326.950440,7.0801470000000000,499.99998114,0,88940.2463613987317596900000,26.7332645813018879114081,0,,,,
,Physical Locations/Indep/Existencias,Indep/Existencias,00,CRISTAL,001.001.003.008,M2,"Cristal Gris  6mm,China",,2018-12-11,12/2018,"",,0001,00000111,TEMPLADOS LIMATAMBO S.A.C.,0,0,3326.950440,27.0338407449792765051499,1000.002,0,89940.2483613987317596900000,27.0338407449792765051499,0,,,,
,Physical Locations/Indep/Existencias,Indep/Existencias,00,CRISTAL,001.001.004.008,M2,"Cristal Gris  8mm,China,2134x3300",,2018-11-12,11/2018,"",,0005,00002271,EMPRESA DE TRANSPORTES CHILO E.I.R.L.,0,0,0,823.244891,823.244891,0,823.244891,0,0,,,,
Partner Locations/Vendors,Physical Locations/Indep/Existencias,Indep/Existencias,02,CRISTAL,001.001.004.008,M2,"Cristal Gris  8mm,China,2134x3300",2018-11-13,2018-11-13,11/2018,WH/IN/00026,,,"",DISTRIBUIDORA DE VIDRIOS MARCELO S.R.L.,140.844000,0,140.844000,22.1521680000000000,3119.999949792,0,3943.244840792,27.9972511487319304,0,,,,
Partner Locations/Vendors,Physical Locations/Indep/Existencias,Indep/Existencias,02,CRISTAL,001.001.004.008,M2,"Cristal Gris  8mm,China,2134x3300",2018-11-29,2018-11-29,11/2018,WH/IN/00028,,,"",CORPORACION VIANOR SAC,133.801800,0,274.645800,35.7572904000000000,4784.38981864272,0,8727.63465943472,31.7777830916574002,0,,,,
Physical Locations/Indep/Existencias,Partner Locations/Customers,Indep/Existencias,01,CRISTAL,001.001.004.008,M2,"Cristal Gris  8mm,China,2134x3300",2018-11-29,2018-11-29,11/2018,WH/OUT/00033,,,"",AGUILAR JIMENEZ SIMON AQUILES ,0,7.042200,267.603600,31.7777830916574002,0,223.7855040880697436884400,8503.8491553466502563115600,31.7777830916574002,0,,,,
Partner Locations/Vendors,Physical Locations/Indep/Existencias,Indep/Existencias,02,CRISTAL,001.001.004.008,M2,"Cristal Gris  8mm,China,2134x3300",2018-11-30,2018-11-30,11/2018,WH/IN/00029,,,"",COESTI,10563.300000,0,10830.903600,7.1000540000000000,75000.0004182,0,83503.8495735466502563115600,7.7097768254115612529606,0,,,,
,Physical Locations/Indep/Existencias,Indep/Existencias,00,CRISTAL,001.001.004.008,M2,"Cristal Gris  8mm,China,2134x3300",,2018-11-30,11/2018,"",,0001,00000015,EMPRESA DE TRANSPORTES CHILO E.I.R.L.,0,0,10830.903600,7.9761087129929445827873,2884.615,0,86388.4645735466502563115600,7.9761087129929445827873,0,,,,
Partner Locations/Vendors,Physical Locations/Indep/Existencias,Indep/Existencias,02,CRISTAL,001.001.004.008,M2,"Cristal Gris  8mm,China,2134x3300",2018-12-03,2018-12-03,12/2018,WH/IN/00030,,,"",ABASTECEDORA ALIMENTICIA SAC,492.954000,0,11323.857600,1.4215323860000000,700.750075808244,0,87089.2146493548942563115600,7.6907726788576795822928,0,,,,
,Physical Locations/Indep/Existencias,Indep/Existencias,00,CRISTAL,001.001.004.008,M2,"Cristal Gris  8mm,China,2134x3300",,2018-12-03,12/2018,"",,0005,00000898,TRANSPORTE LOS CRISTALES S.A.C.,0,0,11323.857600,7.7335157101723792655527,484.016,0,87573.2306493548942563115600,7.7335157101723792655527,0,,,,
Partner Locations/Vendors,Physical Locations/Indep/Existencias,Indep/Existencias,02,CRISTAL,001.001.004.008,M2,"Cristal Gris  8mm,China,2140x3300",2018-11-29,2018-11-29,11/2018,WH/IN/00028,,,"",CORPORACION VIANOR SAC,134.178000,0,134.178000,35.8963469800000000,4816.50004508244,0,4816.50004508244,35.8963469800000000,0,,,,
Physical Locations/Indep/Existencias,Partner Locations/Customers,Indep/Existencias,01,CRISTAL,001.001.004.008,M2,"Cristal Gris  8mm,China,2140x3300",2018-11-29,2018-11-29,11/2018,WH/OUT/00033,,,"",AGUILAR JIMENEZ SIMON AQUILES ,0,7.062000,127.116000,35.8963469800000000,0,253.5000023727600000000000,4563.0000427096800000000000,35.8963469800000000,0,,,,
Partner Locations/Vendors,Physical Locations/Indep/Existencias,Indep/Existencias,02,CRISTAL,001.001.004.008,M2,"Cristal Gris  8mm,China,2140x3300",2018-11-30,2018-11-30,11/2018,WH/IN/00029,,,"",COESTI,706.200000,0,833.316000,9.9122060000000000,6999.9998772,0,11562.9999199096800000000000,13.8758885223728813559322,0,,,,
,Physical Locations/Indep/Existencias,Indep/Existencias,00,CRISTAL,001.001.004.008,M2,"Cristal Gris  8mm,China,2140x3300",,2018-11-30,11/2018,"",,0001,00000015,EMPRESA DE TRANSPORTES CHILO E.I.R.L.,0,0,833.316000,14.1066653225303246307523,192.31,0,11755.3099199096800000000000,14.1066653225303246307523,0,,,,
Partner Locations/Vendors,Physical Locations/Indep/Existencias,Indep/Existencias,02,CRISTAL,001.001.004.008,M2,"Cristal Gris  8mm,China,2140x3300",2018-12-03,2018-12-03,12/2018,WH/IN/00030,,,"",ABASTECEDORA ALIMENTICIA SAC,706.200000,0,1539.516000,4.7890100780000000,3381.9989170836,0,15137.3088369932800000000000,9.8325115406356803047191,0,,,,
,Physical Locations/Indep/Existencias,Indep/Existencias,00,CRISTAL,001.001.004.008,M2,"Cristal Gris  8mm,China,2140x3300",,2018-12-03,12/2018,"",,0005,00000898,TRANSPORTE LOS CRISTALES S.A.C.,0,0,1539.516000,11.3498507563372384567617,2335.968,0,17473.2768369932800000000000,11.3498507563372384567617,0,,,,
Partner Locations/Vendors,Physical Locations/Indep/Existencias,Indep/Existencias,02,CRISTAL,001.001.005.008,M2,"Cristal Gris 10mm,China",2018-10-17,2018-10-17,10/2018,WH/IN/00006,,,"",CRISTALES Y VIDRIOS DEL PERU S.A.C. ,211.860000,0,211.860000,36.9232698440000000,7822.56394914984,0,7822.56394914984,36.9232698440000000,0,,,,
Partner Locations/Vendors,Physical Locations/Indep/Existencias,Indep/Existencias,02,CRISTAL,001.001.005.008,M2,"Cristal Gris 10mm,China",2018-10-30,2018-10-30,10/2018,WH/IN/00009,,,"",CRISTALES Y VIDRIOS DEL PERU S.A.C. ,211.860000,0,423.720000,43.8009862400000000,9279.6769448064,0,17102.24089395624,40.3621280420000000,0,,,,
,Physical Locations/Indep/Existencias,Indep/Existencias,00,CRISTAL,001.001.005.008,M2,"Cristal Gris  10mm,China",,2018-12-03,12/2018,"",,0005,00000898,TRANSPORTE LOS CRISTALES S.A.C.,0,0,0,6000,6000,0,6000,0,0,,,,
Partner Locations/Vendors,Physical Locations/Indep/Existencias,Indep/Existencias,02,CRISTAL,001.001.005.008,M2,"Cristal Gris  10mm,China",2018-12-11,2018-12-11,12/2018,WH/IN/00032,,,"",CRISTALES Y VIDRIOS DEL PERU S.A.C. ,1952.610000,0,1952.610000,3.8410130000000000,7500.00039393,0,13500.00039393,6.9138232386037150,0,,,,
,Physical Locations/Indep/Existencias,Indep/Existencias,00,CRISTAL,001.003.003.008,M2,"Cristal Incoloro  6mm,China",,2018-11-12,11/2018,"",,0004,00001419,EMPRESA DE TRANSPORTES CHILO E.I.R.L.,0,0,0,2259.88527,2259.88527,0,2259.88527,0,0,,,,
Partner Locations/Vendors,Physical Locations/Indep/Existencias,Indep/Existencias,02,CRISTAL,001.003.003.008,M2,"Cristal Incoloro  6mm,China",2018-11-13,2018-11-13,11/2018,WH/IN/00025,,,"",CRISTALES Y VIDRIOS DEL PERU S.A.C. ,1059.300000,0,1059.300000,69.3380059790000000,73449.7497335547,0,75709.6350035547,71.4713820481022373,0,,,,
Partner Locations/Vendors,Physical Locations/Indep/Existencias,Indep/Existencias,02,CRISTAL,001.003.003.008,M2,"Cristal Incoloro  6mm,China",2018-11-30,2018-11-30,11/2018,WH/IN/00029,,,"",COESTI,7062.000000,0,8121.300000,2.8320590000000000,20000.000658,0,95709.6356615547,11.7850141801872483,0,,,,
,Physical Locations/Indep/Existencias,Indep/Existencias,00,CRISTAL,001.003.003.008,M2,"Cristal Incoloro  6mm,China",,2018-11-30,11/2018,"",,0001,00000015,EMPRESA DE TRANSPORTES CHILO E.I.R.L.,0,0,8121.300000,12.0218081663717262,1923.075,0,97632.7106615547,12.0218081663717262,0,,,,
Partner Locations/Vendors,Physical Locations/Indep/Existencias,Indep/Existencias,02,PLANCHAS DE POLICARBONATO,003.004.022.003,M2,"Policarbonato Poliglass Alveolar Transparente,6mm",2018-10-18,2018-10-18,10/2018,WH/IN/00008,,,"",POLYROOF S.A.C.,609.000000,0,609.000000,18.0768465840000000,11008.799569656,0,11008.799569656,18.0768465840000000,0,,,,
Physical Locations/Indep/Existencias,Partner Locations/Customers,Indep/Existencias,01,PLANCHAS DE POLICARBONATO,003.004.022.003,M2,"Policarbonato Poliglass Alveolar Transparente,6mm",2018-10-18,2018-10-18,10/2018,WH/OUT/00007,,,"",LA PAZ S.A.C.     ,0,487.200000,121.800000,18.0768465840000000,0,8807.0396557248000000000000,2201.7599139312000000000000,18.0768465840000000,0,,,,
Partner Locations/Vendors,Physical Locations/Indep/Existencias,Indep/Existencias,02,PLANCHAS DE POLICARBONATO,003.004.022.003,M2,"Policarbonato Poliglass Alveolar Transparente,6mm",2018-10-30,2018-10-30,10/2018,WH/IN/00010,,,"",POLYROOF S.A.C.,974.400000,0,1096.200000,18.1635460880000000,17698.5593081472,0,19900.3192220784000000000000,18.1539128097777777777778,0,,,,
Partner Locations/Vendors,Physical Locations/Indep/Existencias,Indep/Existencias,02,PLANCHAS DE POLICARBONATO,003.004.022.003,M2,"Policarbonato Poliglass Alveolar Transparente,6mm",2018-11-12,2018-11-12,11/2018,WH/IN/00018,,,"",POLYROOF S.A.C.,487.200000,0,1583.400000,18.2719204680000000,8902.0796520096,0,28802.3988740880000000000000,18.1902228584615384615385,0,,,,
,Physical Locations/Indep/Existencias,Indep/Existencias,00,PLANCHAS DE POLICARBONATO,003.004.022.003,M2,"Policarbonato Poliglass Alveolar Transparente,6mm",,2018-11-12,11/2018,"",,0005,00002271,EMPRESA DE TRANSPORTES CHILO E.I.R.L.,0,0,1583.400000,19.4900303038322596943287,2058.115109,0,30860.5139830880000000000000,19.4900303038322596943287,0,,,,
Partner Locations/Vendors,Physical Locations/Indep/Existencias,Indep/Existencias,02,PLANCHAS DE POLICARBONATO,003.004.022.003,M2,"Policarbonato Poliglass Alveolar Transparente,6mm",2018-11-13,2018-11-13,11/2018,WH/IN/00021,,,"",CRISTALES Y VIDRIOS DEL PERU S.A.C. ,243.600000,0,1827.000000,0.00000000000000000000,0,0,30860.5139830880000000000000,16.8913595966546250684182,0,,,,
Partner Locations/Vendors,Physical Locations/Indep/Existencias,Indep/Existencias,02,PLANCHAS DE POLICARBONATO,003.004.022.003,M2,"Policarbonato Poliglass Alveolar Transparente,6mm",2018-11-13,2018-11-13,11/2018,WH/IN/00022,,,"",POLYROOF S.A.C.,974.400000,0,2801.400000,18.2990140630000000,17830.5593029872,0,48691.0732860752000000000000,17.3809785414704076533162,0,,,,
Partner Locations/Vendors,Physical Locations/Indep/Existencias,Indep/Existencias,02,PLANCHAS DE POLICARBONATO,003.004.022.003,M2,"Policarbonato Poliglass Alveolar Transparente,6mm",2018-11-13,2018-11-13,11/2018,WH/IN/00026,,,"",DISTRIBUIDORA DE VIDRIOS MARCELO S.R.L.,1218.000000,0,4019.400000,14.7783250000000000,17999.99985,0,66691.0731360752000000000000,16.5922956501157386674628,0,,,,
,Physical Locations/Indep/Existencias,Indep/Existencias,00,PLANCHAS DE POLICARBONATO,003.004.022.003,M2,"Policarbonato Poliglass Alveolar Transparente,6mm",,2018-11-13,11/2018,"",,"",00011.16,EMPRESA DE TRANSPORTES CHILO E.I.R.L.,0,0,4019.400000,16.7164025317398616708962,498.8352,0,67189.9083360752000000000000,16.7164025317398616708962,0,,,,
Partner Locations/Vendors,Physical Locations/Indep/Existencias,Indep/Existencias,02,PLANCHAS DE POLICARBONATO,003.004.022.003,M2,"Policarbonato Poliglass Alveolar Transparente,6mm",2018-12-07,2018-12-07,12/2018,WH/IN/00031,,,"",3JG SERVICIOS GENERALES S.A.C.,243.600000,0,4263.000000,4.1050900000000000,999.999924,0,68189.9082600752000000000000,15.9957561013547267182735,0,,,,
,Physical Locations/Indep/Existencias,Indep/Existencias,00,PLANCHAS DE POLICARBONATO,003.004.022.003,M2,"Policarbonato Poliglass Alveolar Transparente,6mm",,2018-12-10,12/2018,"",,0002,00002222,EMPRESA DE TRANSPORTES CHILO E.I.R.L.,0,0,4263.000000,16.0035753131773868167957,33.3333,0,68223.2415600752000000000000,16.0035753131773868167957,0,,,,
Partner Locations/Vendors,Physical Locations/Indep/Existencias,Indep/Existencias,02,CRISTAL,001.002.003.010,M2,"Cristal Bronce 6mm,Venezuela",2018-12-14,2018-12-14,12/2018,WH/IN/00034,,,"",TORRES PALACIOS EDUARDO EPIFANIO,11880.000000,0,11880.000000,6.3731047350000000,75712.4842518,0,75712.4842518,6.3731047350000000,0,,,,
Partner Locations/Vendors,Physical Locations/Indep/Existencias,Indep/Existencias,02,CRISTAL,001.002.003.010,M2,"Cristal Bronce 6mm,Venezuela",2018-12-14,2018-12-14,12/2018,WH/IN/00035,,,"",TORRES PALACIOS EDUARDO EPIFANIO,19800.000000,0,31680.000000,6.3825760000000000,126375.0048,0,202087.4890518,6.3790242756250000,0,,,,
,Physical Locations/Indep/Existencias,Indep/Existencias,00,CRISTAL,001.002.003.010,M2,"Cristal Bronce 6mm,Venezuela",,2018-12-14,12/2018,"",,0001,00000968,TRANSPORTES CALQUIPA SAC,0,0,31680.000000,7.1960894003093434,25884.62315,0,227972.1122018,7.1960894003093434,0,,,,
,Physical Locations/Indep/Existencias,Indep/Existencias,00,CRISTAL,001.002.003.010,M2,"Cristal Bronce 6mm,Venezuela",,2018-12-14,12/2018,"",,"",PO00049,TRANSPORTES CALQUIPA SAC,0,0,31680.000000,7.4173779822222222,7010.422275,0,234982.5344768,7.4173779822222222,0,,,,
,Physical Locations/Indep/Existencias,Indep/Existencias,00,CRISTAL,001.003.004.008,M2,"Cristal Incoloro  8mm,China",,2018-11-12,11/2018,"",,0004,00001419,EMPRESA DE TRANSPORTES CHILO E.I.R.L.,0,0,0,1787.11473,1787.11473,0,1787.11473,0,0,,,,
Partner Locations/Vendors,Physical Locations/Indep/Existencias,Indep/Existencias,02,CRISTAL,001.003.004.008,M2,"Cristal Incoloro  8mm,China",2018-11-13,2018-11-13,11/2018,WH/IN/00025,,,"",CRISTALES Y VIDRIOS DEL PERU S.A.C. ,1059.300000,0,1059.300000,102.8115256409997168,108908.249111511,0,110695.363841511,104.4985970372047579,0,,,,
,Physical Locations/Indep/Existencias,Indep/Existencias,00,ANGULOS,005.009.033.000,MTO,Angulo L.I.11.7mm AE059.03 Plata Mate,,2018-10-31,10/2018,"",,"",PO00017,EMPRESA DE TRANSPORTES CHILO E.I.R.L.,0,0,0,1006.028289,1006.028289,0,1006.028289,0,0,,,,
Partner Locations/Vendors,Physical Locations/Indep/Existencias,Indep/Existencias,02,ANGULOS,005.009.033.000,MTO,Angulo L.I.11.7mm AE059.03 Plata Mate,2018-11-13,2018-11-13,11/2018,WH/IN/00023,,,"",CORPORACION VIANOR SAC,334.320000,0,334.320000,0.84849151200000000000,283.66768229184,0,1289.69597129184,3.8576692130050251,0,,,,
Partner Locations/Vendors,Physical Locations/Indep/Existencias,Indep/Existencias,02,PLANCHAS DE POLICARBONATO,003.004.024.003,M2,"Policarbonato Poliglass Alveolar Blanco,6mm",2018-10-18,2018-10-18,10/2018,WH/IN/00008,,,"",POLYROOF S.A.C.,852.600000,0,852.600000,18.0768465840000000,15412.3193975184,0,15412.3193975184,18.0768465840000000,0,,,,
Physical Locations/Indep/Existencias,Partner Locations/Customers,Indep/Existencias,01,PLANCHAS DE POLICARBONATO,003.004.024.003,M2,"Policarbonato Poliglass Alveolar Blanco,6mm",2018-10-18,2018-10-18,10/2018,WH/OUT/00006,,,"",VALENCIA CCALLA CARMEN ROSARIO,0,48.720000,803.880000,18.0768465840000000,0,880.7039655724800000000000,14531.6154319459200000000000,18.0768465840000000,0,,,,
Partner Locations/Vendors,Physical Locations/Indep/Existencias,Indep/Existencias,02,PLANCHAS DE POLICARBONATO,003.004.024.003,M2,"Policarbonato Poliglass Alveolar Blanco,6mm",2018-10-30,2018-10-30,10/2018,WH/IN/00010,,,"",POLYROOF S.A.C.,974.400000,0,1778.280000,18.1635460880000000,17698.5593081472,0,32230.1747400931200000000000,18.1243531615342465753425,0,,,,
Partner Locations/Vendors,Physical Locations/Indep/Existencias,Indep/Existencias,02,PLANCHAS DE POLICARBONATO,003.004.024.003,M2,"Policarbonato Poliglass Alveolar Blanco,6mm",2018-11-13,2018-11-13,11/2018,WH/IN/00022,,,"",POLYROOF S.A.C.,974.400000,0,2752.680000,18.2990140630000000,17830.5593029872,0,50060.7340430803200000000000,18.1861800293097345132743,0,,,,
,Physical Locations/Indep/Existencias,Indep/Existencias,00,PLANCHAS DE POLICARBONATO,003.004.024.003,M2,"Policarbonato Poliglass Alveolar Blanco,6mm",,2018-11-13,11/2018,"",,"",00011.16,EMPRESA DE TRANSPORTES CHILO E.I.R.L.,0,0,2752.680000,18.3673980423007105802345,498.8352,0,50559.5692430803200000000000,18.3673980423007105802345,0,,,,
Partner Locations/Vendors,Physical Locations/Indep/Existencias,Indep/Existencias,02,PLANCHAS DE POLICARBONATO,003.004.025.003,M2,"Policarbonato Poliglass Alveolar Gris Humo,6mm",2018-10-18,2018-10-18,10/2018,WH/IN/00008,,,"",POLYROOF S.A.C.,487.200000,0,487.200000,18.6246311280000000,9073.9202855616,0,9073.9202855616,18.6246311280000000,0,,,,
Partner Locations/Vendors,Physical Locations/Indep/Existencias,Indep/Existencias,02,PLANCHAS DE POLICARBONATO,003.004.025.003,M2,"Policarbonato Poliglass Alveolar Gris Humo,6mm",2018-10-30,2018-10-30,10/2018,WH/IN/00010,,,"",POLYROOF S.A.C.,365.400000,0,852.600000,18.7139578960000000,6838.0802151984,0,15912.0005007600,18.6629140285714286,0,,,,
Partner Locations/Vendors,Physical Locations/Indep/Existencias,Indep/Existencias,02,PLANCHAS DE POLICARBONATO,003.004.025.003,M2,"Policarbonato Poliglass Alveolar Gris Humo,6mm",2018-11-13,2018-11-13,11/2018,WH/IN/00024,,,"",POLYROOF S.A.C.,243.600000,0,1096.200000,18.8535309710000000,4592.7201445356,0,20504.7206452956,18.7052733491111111,0,,,,
,Physical Locations/Indep/Existencias,Indep/Existencias,00,PLANCHAS DE POLICARBONATO,003.004.025.003,M2,"Policarbonato Poliglass Alveolar Gris Humo,6mm",,2018-11-13,11/2018,"",,"",PO00033,TRANSPORTE LOS CRISTALES S.A.C.,0,0,1096.200000,18.8269055330191571,133.3332,0,20638.0538452956,18.8269055330191571,0,,,,
Partner Locations/Vendors,Physical Locations/Indep/Existencias,Indep/Existencias,02,PLANCHAS DE POLICARBONATO,003.004.026.003,M2,"Policarbonato Poliglass Alveolar Azul,6mm",2018-10-18,2018-10-18,10/2018,WH/IN/00008,,,"",POLYROOF S.A.C.,487.200000,0,487.200000,18.6246311280000000,9073.9202855616,0,9073.9202855616,18.6246311280000000,0,,,,
Partner Locations/Vendors,Physical Locations/Indep/Existencias,Indep/Existencias,02,PLANCHAS DE POLICARBONATO,003.004.026.003,M2,"Policarbonato Poliglass Alveolar Azul,6mm",2018-10-30,2018-10-30,10/2018,WH/IN/00010,,,"",POLYROOF S.A.C.,365.400000,0,852.600000,18.7139578960000000,6838.0802151984,0,15912.0005007600,18.6629140285714286,0,,,,
Partner Locations/Vendors,Physical Locations/Indep/Existencias,Indep/Existencias,02,PLANCHAS DE POLICARBONATO,003.004.027.003,M2,"Policarbonato Poliglass Alveolar Verde,6mm",2018-10-18,2018-10-18,10/2018,WH/IN/00008,,,"",POLYROOF S.A.C.,487.200000,0,487.200000,18.6246311280000000,9073.9202855616,0,9073.9202855616,18.6246311280000000,0,,,,
Physical Locations/Indep/Existencias,Partner Locations/Customers,Indep/Existencias,01,PLANCHAS DE POLICARBONATO,003.004.027.003,M2,"Policarbonato Poliglass Alveolar Verde,6mm",2018-10-18,2018-10-18,10/2018,WH/OUT/00006,,,"",VALENCIA CCALLA CARMEN ROSARIO,0,73.080000,414.120000,18.6246311280000000,0,1361.0880428342400000000000,7712.8322427273600000000000,18.6246311280000000,0,,,,
Physical Locations/Indep/Existencias,Partner Locations/Customers,Indep/Existencias,01,PLANCHAS DE POLICARBONATO,003.004.027.003,M2,"Policarbonato Poliglass Alveolar Verde,6mm",2018-10-18,2018-10-18,10/2018,WH/OUT/00007,,,"",LA PAZ S.A.C.     ,0,73.080000,341.040000,18.6246311280000000,0,1361.0880428342400000000000,6351.7441998931200000000000,18.6246311280000000,0,,,,
Partner Locations/Vendors,Physical Locations/Indep/Existencias,Indep/Existencias,02,PLANCHAS DE POLICARBONATO,003.004.027.003,M2,"Policarbonato Poliglass Alveolar Verde,6mm",2018-10-30,2018-10-30,10/2018,WH/IN/00010,,,"",POLYROOF S.A.C.,487.200000,0,828.240000,18.7139578960000000,9117.4402869312,0,15469.1844868243200000000000,18.6771762856470588235294,0,,,,
Partner Locations/Vendors,Physical Locations/Indep/Existencias,Indep/Existencias,02,PLANCHAS DE POLICARBONATO,003.004.028.003,M2,"Policarbonato Poliglass Alveolar Reflectivo Gris,6mm",2018-10-18,2018-10-18,10/2018,WH/IN/00008,,,"",POLYROOF S.A.C.,487.200000,0,487.200000,19.1724123360000000,9340.7992900992,0,9340.7992900992,19.1724123360000000,0,,,,
Partner Locations/Vendors,Physical Locations/Indep/Existencias,Indep/Existencias,02,PLANCHAS DE POLICARBONATO,003.004.028.003,M2,"Policarbonato Poliglass Alveolar Reflectivo Gris,6mm",2018-10-30,2018-10-30,10/2018,WH/IN/00010,,,"",POLYROOF S.A.C.,487.200000,0,974.400000,19.2643663520000000,9385.5992866944,0,18726.3985767936,19.2183893440000000,0,,,,
Partner Locations/Vendors,Physical Locations/Indep/Existencias,Indep/Existencias,02,PLANCHAS DE POLICARBONATO,003.004.029.003,M2,"Policarbonato Poliglass Alveolar Naranja,6mm",2018-10-18,2018-10-18,10/2018,WH/IN/00008,,,"",POLYROOF S.A.C.,121.800000,0,121.800000,18.6246311280000000,2268.4800713904,0,2268.4800713904,18.6246311280000000,0,,,,
Partner Locations/Vendors,Physical Locations/Indep/Existencias,Indep/Existencias,02,PLANCHAS DE POLICARBONATO,003.004.030.003,M2,"Policarbonato Poliglass Alveolar Turqueza,6mm",2018-10-18,2018-10-18,10/2018,WH/IN/00008,,,"",POLYROOF S.A.C.,487.200000,0,487.200000,18.6246311280000000,9073.9202855616,0,9073.9202855616,18.6246311280000000,0,,,,
Partner Locations/Vendors,Physical Locations/Indep/Existencias,Indep/Existencias,02,PLANCHAS DE POLICARBONATO,003.004.030.003,M2,"Policarbonato Poliglass Alveolar Turqueza,6mm",2018-10-30,2018-10-30,10/2018,WH/IN/00010,,,"",POLYROOF S.A.C.,487.200000,0,974.400000,18.7139578960000000,9117.4402869312,0,18191.3605724928,18.6692945120000000,0,,,,
Partner Locations/Vendors,Physical Locations/Indep/Existencias,Indep/Existencias,02,PLANCHAS DE POLICARBONATO,003.004.030.003,M2,"Policarbonato Poliglass Alveolar Turqueza,6mm",2018-11-13,2018-11-13,11/2018,WH/IN/00022,,,"",POLYROOF S.A.C.,487.200000,0,1461.600000,18.8535309710000000,9185.4402890712,0,27376.8008615640,18.7307066650000000,0,,,,
,Physical Locations/Indep/Existencias,Indep/Existencias,00,PLANCHAS DE POLICARBONATO,003.004.030.003,M2,"Policarbonato Poliglass Alveolar Turqueza,6mm",,2018-11-13,11/2018,"",,"",00011.16,EMPRESA DE TRANSPORTES CHILO E.I.R.L.,0,0,1461.600000,18.9013536272331691,249.4176,0,27626.2184615640,18.9013536272331691,0,,,,
Partner Locations/Vendors,Physical Locations/Indep/Existencias,Indep/Existencias,02,PLANCHAS DE POLICARBONATO,003.004.031.003,M2,"Policarbonato Poliglass Alveolar Amarillo,6mm",2018-10-18,2018-10-18,10/2018,WH/IN/00008,,,"",POLYROOF S.A.C.,243.600000,0,243.600000,18.6246311280000000,4536.9601427808,0,4536.9601427808,18.6246311280000000,0,,,,
Partner Locations/Vendors,Physical Locations/Indep/Existencias,Indep/Existencias,02,PLANCHAS DE POLICARBONATO,003.004.031.003,M2,"Policarbonato Poliglass Alveolar Amarillo,6mm",2018-10-30,2018-10-30,10/2018,WH/IN/00010,,,"",POLYROOF S.A.C.,121.800000,0,365.400000,18.7139578960000000,2279.3600717328,0,6816.3202145136,18.6544067173333333,0,,,,
Partner Locations/Vendors,Physical Locations/Indep/Existencias,Indep/Existencias,02,PLANCHAS DE POLICARBONATO,003.004.037.003,M2,"Policarbonato Poliglass Alveolar Bronce,6mm",2018-10-18,2018-10-18,10/2018,WH/IN/00008,,,"",POLYROOF S.A.C.,609.000000,0,609.000000,18.6246311280000000,11342.400356952,0,11342.400356952,18.6246311280000000,0,,,,
Partner Locations/Vendors,Physical Locations/Indep/Existencias,Indep/Existencias,02,PLANCHAS DE POLICARBONATO,003.004.037.003,M2,"Policarbonato Poliglass Alveolar Bronce,6mm",2018-10-30,2018-10-30,10/2018,WH/IN/00010,,,"",POLYROOF S.A.C.,609.000000,0,1218.000000,18.1635460880000000,11061.599567592,0,22403.999924544,18.3940886080000000,0,,,,
Partner Locations/Vendors,Physical Locations/Indep/Existencias,Indep/Existencias,02,PLANCHAS DE POLICARBONATO,003.004.037.003,M2,"Policarbonato Poliglass Alveolar Bronce,6mm",2018-11-13,2018-11-13,11/2018,WH/IN/00022,,,"",POLYROOF S.A.C.,609.000000,0,1827.000000,18.2990140630000000,11144.099564367,0,33548.099488911,18.3623970930000000,0,,,,
,Physical Locations/Indep/Existencias,Indep/Existencias,00,PLANCHAS DE POLICARBONATO,003.004.037.003,M2,"Policarbonato Poliglass Alveolar Bronce,6mm",,2018-11-13,11/2018,"",,"",00011.16,EMPRESA DE TRANSPORTES CHILO E.I.R.L.,0,0,1827.000000,18.5330440552331691,311.772,0,33859.871488911,18.5330440552331691,0,,,,
Partner Locations/Vendors,Physical Locations/Indep/Existencias,Indep/Existencias,02,ACCESORIOS PARA POLICARBONATO,007.012.022.003,VRLLA,"Conector Terminal J 2.10 Mts. Poliglass Transparente,6mm",2018-10-18,2018-10-18,10/2018,WH/IN/00008,,,"",POLYROOF S.A.C.,100.000,0,100.000,3.0024000000000000,300.24,0,300.24,3.0024000000000000,0,,,,
Physical Locations/Indep/Existencias,Partner Locations/Customers,Indep/Existencias,01,ACCESORIOS PARA POLICARBONATO,007.012.022.003,VRLLA,"Conector Terminal J 2.10 Mts. Poliglass Transparente,6mm",2018-10-18,2018-10-18,10/2018,WH/OUT/00007,,,"",LA PAZ S.A.C.     ,0,50.000,50.000,3.0024000000000000,0,150.1200000000000000000,150.1200000000000000000,3.0024000000000000,0,,,,
Partner Locations/Vendors,Physical Locations/Indep/Existencias,Indep/Existencias,02,ACCESORIOS PARA POLICARBONATO,007.012.022.003,VRLLA,"Conector Terminal J 2.10 Mts. Poliglass Transparente,6mm",2018-10-30,2018-10-30,10/2018,WH/IN/00010,,,"",POLYROOF S.A.C.,100.000,0,150.000,3.0168000000000000,301.68,0,451.8000000000000000000,3.0120000000000000000,0,,,,
Partner Locations/Vendors,Physical Locations/Indep/Existencias,Indep/Existencias,02,ANGULOS,005.011.033.000,MTO,Angulo L.I. 12.7mm A061.03 Plata Mate,2018-10-17,2018-10-17,10/2018,WH/IN/00007,,,"",CORPORACION VIANOR SAC,597.000000,0,597.000000,0.80418080400000000000,480.095939988,0,480.095939988,0.80418080400000000000,0,,,,
Physical Locations/Indep/Existencias,Partner Locations/Customers,Indep/Existencias,01,ANGULOS,005.011.033.000,MTO,Angulo L.I. 12.7mm A061.03 Plata Mate,2018-10-18,2018-10-18,10/2018,WH/OUT/00004,,,"",VETROSAC S.R.L.,0,179.100000,417.900000,0.80418080400000000000,0,144.02878199640000000000000000,336.06715799160000000000000000,0.80418080400000000000,0,,,,
Partner Locations/Vendors,Physical Locations/Indep/Existencias,Indep/Existencias,02,CANALES,008.014.034.000,MTO,Canal U P/Pisa Vidrio 12.7x12.7mm U074.13  Negro,2018-10-17,2018-10-17,10/2018,WH/IN/00007,,,"",CORPORACION VIANOR SAC,597.000000,0,597.000000,0.90470423800000000000,540.108430086,0,540.108430086,0.90470423800000000000,0,,,,
Physical Locations/Indep/Existencias,Partner Locations/Customers,Indep/Existencias,01,CANALES,008.014.034.000,MTO,Canal U P/Pisa Vidrio 12.7x12.7mm U074.13  Negro,2018-10-18,2018-10-18,10/2018,WH/OUT/00007,,,"",LA PAZ S.A.C.     ,0,137.310000,459.690000,0.90470423800000000000,0,124.22493891978000000000000000,415.88349116622000000000000000,0.90470423800000000000,0,,,,
Partner Locations/Vendors,Physical Locations/Indep/Existencias,Indep/Existencias,02,SISTEMA NOVA,009.015.033.000,MTO,  Nova Perfil H P/ventana 31.8x12.7mm LIM016.03   Plata Mate,2018-10-17,2018-10-17,10/2018,WH/IN/00007,,,"",CORPORACION VIANOR SAC,179.100000,0,179.100000,4.0823363040000000,731.1464320464,0,731.1464320464,4.0823363040000000,0,,,,
Physical Locations/Indep/Existencias,Partner Locations/Customers,Indep/Existencias,01,SISTEMA NOVA,009.015.033.000,MTO,  Nova Perfil H P/ventana 31.8x12.7mm LIM016.03   Plata Mate,2018-10-18,2018-10-18,10/2018,WH/OUT/00006,,,"",VALENCIA CCALLA CARMEN ROSARIO,0,59.700000,119.400000,4.0823363040000000,0,243.7154773488000000000000,487.4309546976000000000000,4.0823363040000000,0,,,,
Partner Locations/Vendors,Physical Locations/Indep/Existencias,Indep/Existencias,02,TUBOS ,010.016.033.000,MTO,Tubo Cuadrado 38.1mm TAE087.03  Plata Mate,2018-10-17,2018-10-17,10/2018,WH/IN/00007,,,"",CORPORACION VIANOR SAC,298.500000,0,298.500000,3.7305059520000000,1113.556026672,0,1113.556026672,3.7305059520000000,0,,,,
Partner Locations/Vendors,Physical Locations/Indep/Existencias,Indep/Existencias,02,TUBOS ,010.017.033.000,MTO,Tubo Rectangular 50x25mm T117.03   Plata Mate,2018-10-17,2018-10-17,10/2018,WH/IN/00007,,,"",CORPORACION VIANOR SAC,119.400000,0,119.400000,3.6969992520000000,441.4217106888,0,441.4217106888,3.6969992520000000,0,,,,
Physical Locations/Indep/Existencias,Partner Locations/Customers,Indep/Existencias,01,TUBOS ,010.017.033.000,MTO,Tubo Rectangular 50x25mm T117.03   Plata Mate,2018-10-18,2018-10-18,10/2018,WH/OUT/00004,,,"",VETROSAC S.R.L.,0,17.910000,101.490000,3.6969992520000000,0,66.2132566033200000000000,375.2084540854800000000000,3.6969992520000000,0,,,,
Physical Locations/Indep/Existencias,Partner Locations/Customers,Indep/Existencias,01,TUBOS ,010.017.033.000,MTO,Tubo Rectangular 50x25mm T117.03   Plata Mate,2018-10-18,2018-10-18,10/2018,WH/OUT/00007,,,"",LA PAZ S.A.C.     ,0,89.550000,11.940000,3.6969992520000000,0,331.0662830166000000000000,44.1421710688800000000000,3.6969992520000000,0,,,,
Partner Locations/Vendors,Physical Locations/Indep/Existencias,Indep/Existencias,02,TUBOS ,010.018.033.000,MTO,Tubo Rectangular 60.3x25.4mm T154.03   Plata Mate,2018-10-17,2018-10-17,10/2018,WH/IN/00007,,,"",CORPORACION VIANOR SAC,119.400000,0,119.400000,4.3727343720000000,522.1044840168,0,522.1044840168,4.3727343720000000,0,,,,
,Physical Locations/Indep/Existencias,Indep/Existencias,00,TUBOS ,010.018.033.000,MTO,Tubo Rectangular 60.3x25.4mm T154.03   Plata Mate,,2018-10-31,10/2018,"",,"",PO00017,EMPRESA DE TRANSPORTES CHILO E.I.R.L.,0,0,119.400000,19.7195661224187605,1832.411711,0,2354.5161950168,19.7195661224187605,0,,,,
Partner Locations/Vendors,Physical Locations/Indep/Existencias,Indep/Existencias,02,TUBOS ,010.018.033.000,MTO,Tubo Rectangular 60.3x25.4mm T154.03   Plata Mate,2018-11-13,2018-11-13,11/2018,WH/IN/00023,,,"",CORPORACION VIANOR SAC,608.940000,0,728.340000,4.3725632390000000,2662.62865875666,0,5017.14485377346,6.8884653510358624,0,,,,
Partner Locations/Vendors,Physical Locations/Indep/Existencias,Indep/Existencias,02,TUBOS ,010.019.033.000,MTO,Tubo Rectangular 82.5x38.1mm LIMA015.03 Plata Mate,2018-10-17,2018-10-17,10/2018,WH/IN/00007,,,"",CORPORACION VIANOR SAC,119.400000,0,119.400000,11.3032101900000000,1349.603296686,0,1349.603296686,11.3032101900000000,0,,,,
Physical Locations/Indep/Existencias,Partner Locations/Customers,Indep/Existencias,01,TUBOS ,010.019.033.000,MTO,Tubo Rectangular 82.5x38.1mm LIMA015.03 Plata Mate,2018-10-18,2018-10-18,10/2018,WH/OUT/00004,,,"",VETROSAC S.R.L.,0,59.700000,59.700000,11.3032101900000000,0,674.8016483430000000000000,674.8016483430000000000000,11.3032101900000000,0,,,,
Partner Locations/Vendors,Physical Locations/Indep/Existencias,Indep/Existencias,02,SILICONAS,011.020.013.022,TUBO,"Silicona Soudal AV- Vidrio/Aluminio X300ml. Belgica,Transparente",2018-11-13,2018-11-13,11/2018,WH/IN/00021,,,"",CRISTALES Y VIDRIOS DEL PERU S.A.C. ,5.000,0,5.000,0.00000000000000000000,0,0,0,0.00000000000000000000,0,,,,
,Physical Locations/Indep/Existencias,Indep/Existencias,00,SILICONAS,011.020.013.022,TUBO,"Silicona Soudal AV- Vidrio/Aluminio X300ml. Belgica,Transparente",,2018-12-03,12/2018,"",,0005,00000898,TRANSPORTE LOS CRISTALES S.A.C.,0,0,5.000,80.0000000000000000,400,0,400,80.0000000000000000,0,,,,
Partner Locations/Vendors,Physical Locations/Indep/Existencias,Indep/Existencias,02,SILICONAS,011.020.013.022,TUBO,"Silicona Soudal AV- Vidrio/Aluminio X300ml. Belgica,Transparente",2018-12-07,2018-12-07,12/2018,WH/IN/00031,,,"",3JG SERVICIOS GENERALES S.A.C.,20.000,0,25.000,9.0000000000000000,180,0,580,23.2000000000000000,0,,,,
,Physical Locations/Indep/Existencias,Indep/Existencias,00,SILICONAS,011.020.013.022,TUBO,"Silicona Soudal AV- Vidrio/Aluminio X300ml. Belgica,Transparente",,2018-12-10,12/2018,"",,0002,00002222,EMPRESA DE TRANSPORTES CHILO E.I.R.L.,0,0,25.000,25.8666640000000000,66.6666,0,646.6666,25.8666640000000000,0,,,,
Partner Locations/Vendors,Physical Locations/Indep/Existencias,Indep/Existencias,02,SILICONAS,011.020.013.022,TUBO,"Silicona Soudal AV- Vidrio/Aluminio X300ml. Belgica,Transparente",2018-12-11,2018-12-11,12/2018,WH/IN/00032,,,"",CRISTALES Y VIDRIOS DEL PERU S.A.C. ,50.000,0,75.000,10.0000000000000000,500,0,1146.6666,15.2888880000000000,0,,,,
Partner Locations/Vendors,Physical Locations/Indep/Existencias,Indep/Existencias,02,SILICONAS,011.020.013.034,TUBO,"Silicona Soudal AV- Vidrio/Aluminio X300ml. Belgica,Negro",2018-11-13,2018-11-13,11/2018,WH/IN/00024,,,"",POLYROOF S.A.C.,20.000,0,20.000,526.8120000000000000,10536.24,0,10536.24,526.8120000000000000,0,,,,
,Physical Locations/Indep/Existencias,Indep/Existencias,00,SILICONAS,011.020.013.034,TUBO,"Silicona Soudal AV- Vidrio/Aluminio X300ml. Belgica,Negro",,2018-11-13,11/2018,"",,"",PO00033,TRANSPORTE LOS CRISTALES S.A.C.,0,0,20.000,540.1453400000000000,266.6668,0,10802.9068,540.1453400000000000,0,,,,
Partner Locations/Vendors,Physical Locations/Indep/Existencias,Indep/Existencias,02,SILICONAS,011.020.013.038,TUBO,"Silicona Soudal AV- Vidrio/Aluminio X300ml. Belgica,Gris",2018-11-12,2018-11-12,11/2018,WH/IN/00018,,,"",POLYROOF S.A.C.,1152.000,0,1152.000,0.00000000000000000000,0,0,0,0.00000000000000000000,0,,,,
,Physical Locations/Indep/Existencias,Indep/Existencias,00,SILICONAS,011.020.013.038,TUBO,"Silicona Soudal AV- Vidrio/Aluminio X300ml. Belgica,Gris",,2018-12-03,12/2018,"",,0005,00000898,TRANSPORTE LOS CRISTALES S.A.C.,0,0,1152.000,1.3888888888888889,1600,0,1600,1.3888888888888889,0,,,,
Partner Locations/Vendors,Physical Locations/Indep/Existencias,Indep/Existencias,02,SILICONAS,011.020.013.038,TUBO,"Silicona Soudal AV- Vidrio/Aluminio X300ml. Belgica,Gris",2018-12-11,2018-12-11,12/2018,WH/IN/00032,,,"",CRISTALES Y VIDRIOS DEL PERU S.A.C. ,100.000,0,1252.000,20.0000000000000000,2000,0,3600,2.8753993610223642,0,,,,
Partner Locations/Vendors,Physical Locations/Indep/Existencias,Indep/Existencias,02,CRISTAL REFLEJANTE       ,012.021.004.011,M2,"Cristal Reflejante Antelio Plata 8mm,Chile",2018-10-31,2018-10-31,10/2018,WH/IN/00012,,,"",DISTRIBUIDORA DE VIDRIOS MARCELO S.R.L.,670.890000,0,670.890000,120.9638068800000000,81153.4083977232,0,81153.4083977232,120.9638068800000000,0,,,,
Partner Locations/Vendors,Physical Locations/Indep/Existencias,Indep/Existencias,02,CRISTAL REFLEJANTE       ,012.022.004.013,M2,"Cristal Reflejante Silverlight Privablue 8mm,Belgica",2018-10-31,2018-10-31,10/2018,WH/IN/00011,,,"",TEMPLADOS LIMATAMBO S.A.C.,693.360000,0,693.360000,122.4440280000000000,84897.79125408,0,84897.79125408,122.4440280000000000,0,,,,
Partner Locations/Vendors,Physical Locations/Indep/Existencias,Indep/Existencias,02,CRISTALES Y VIDRIOS,000.026.000.000,2.10x11.60 Mts,vidrio amarillo de prueba,2018-12-11,2018-12-11,12/2018,WH/IN/00033,,,"",3JG SERVICIOS GENERALES S.A.C.,50.000,0,50.000,10.0000000000000000,500,0,500,10.0000000000000000,0,,,,
,Physical Locations/Indep/Existencias,Indep/Existencias,00,CRISTALES Y VIDRIOS,000.026.000.000,2.10x11.60 Mts,vidrio amarillo de prueba,,2018-12-11,12/2018,"",,0001,00000111,TEMPLADOS LIMATAMBO S.A.C.,0,0,50.000,109.9999600000000000,4999.998,0,5499.998,109.9999600000000000,0,,,,
Partner Locations/Vendors,Physical Locations/Indep/Existencias,Indep/Existencias,02,CRISTALES Y VIDRIOS,000.026.000.000,2.10x11.60 Mts,vidrio amarillo de prueba,2018-12-14,2018-12-14,12/2018,WH/IN/00034,,,"",TORRES PALACIOS EDUARDO EPIFANIO,300.000,0,350.000,201.9000000000000000,60570,0,66069.998,188.7714228571428571,0,,,,
Partner Locations/Vendors,Physical Locations/Indep/Existencias,Indep/Existencias,02,CRISTALES Y VIDRIOS,000.026.000.000,2.10x11.60 Mts,vidrio amarillo de prueba,2018-12-14,2018-12-14,12/2018,WH/IN/00035,,,"",TORRES PALACIOS EDUARDO EPIFANIO,2000.000,0,2350.000,202.2000000000000000,404400,0,470469.998,200.1999991489361702,0,,,,
,Physical Locations/Indep/Existencias,Indep/Existencias,00,CRISTALES Y VIDRIOS,000.026.000.000,2.10x11.60 Mts,vidrio amarillo de prueba,,2018-12-14,12/2018,"",,0001,00000968,TRANSPORTES CALQUIPA SAC,0,0,2350.000,202.4029429361702128,5176.9179,0,475646.9159,202.4029429361702128,0,,,,
,Physical Locations/Indep/Existencias,Indep/Existencias,00,CRISTALES Y VIDRIOS,000.026.000.000,2.10x11.60 Mts,vidrio amarillo de prueba,,2018-12-14,12/2018,"",,"",PO00049,TRANSPORTES CALQUIPA SAC,0,0,2350.000,204.7894653723404255,5608.327725,0,481255.243625,204.7894653723404255,0,,,,
Partner Locations/Vendors,Physical Locations/Indep/Existencias,Indep/Existencias,02,SUMINISTROS DIVERSOS,014.034.000.000,UNIDAD,COJINETES,2018-11-08,2018-11-08,11/2018,WH/IN/00015,,,"",AUDICONT SRL,5.000,0,5.000,20.0000000000000000,100,0,100,20.0000000000000000,0,,,,
Partner Locations/Vendors,Physical Locations/Indep/Existencias,Indep/Existencias,02,CRISTAL,001.001.001.008,2.10x11.60 Mts,"Cristal Gris  3mm,China,1830x2440mm",2018-12-14,2018-12-14,12/2018,WH/IN/00034,,,"",TORRES PALACIOS EDUARDO EPIFANIO,150.000,0,150.000,100.9500000000000000,15142.5,0,15142.5,100.9500000000000000,0,,,,
Partner Locations/Vendors,Physical Locations/Indep/Existencias,Indep/Existencias,02,CRISTAL,001.001.001.008,2.10x11.60 Mts,"Cristal Gris  3mm,China,1830x2440mm",2018-12-14,2018-12-14,12/2018,WH/IN/00035,,,"",TORRES PALACIOS EDUARDO EPIFANIO,1500.000,0,1650.000,101.1000000000000000,151650,0,166792.5,101.0863636363636364,0,,,,
,Physical Locations/Indep/Existencias,Indep/Existencias,00,CRISTAL,001.001.001.008,2.10x11.60 Mts,"Cristal Gris  3mm,China,1830x2440mm",,2018-12-14,12/2018,"",,0001,00000968,TRANSPORTES CALQUIPA SAC,0,0,1650.000,102.6551266363636364,2588.45895,0,169380.95895,102.6551266363636364,0,,,,
,Physical Locations/Indep/Existencias,Indep/Existencias,00,CRISTAL,001.001.001.008,2.10x11.60 Mts,"Cristal Gris  3mm,China,1830x2440mm",,2018-12-14,12/2018,"",,"",PO00049,TRANSPORTES CALQUIPA SAC,0,0,1650.000,105.2043690606060606,4206.25,0,173587.20895,105.2043690606060606,0,,,,
Partner Locations/Vendors,Physical Locations/PARQU/Existencias,PARQU/Existencias,02,CRISTAL,001.002.003.010,M2,"Cristal Bronce 6mm,Venezuela",2018-12-14,2018-12-14,12/2018,PARQU/IN/00001,,,"",TORRES PALACIOS EDUARDO EPIFANIO,9504.000000,0,9504.000000,21.4773682400000000,204120.90775296,0,204120.90775296,21.4773682400000000,0,,,,
,Physical Locations/PARQU/Existencias,PARQU/Existencias,00,CRISTAL,001.002.003.010,M2,"Cristal Bronce 6mm,Venezuela",,2018-12-14,12/2018,"",,"",PO00051,TRANSPORTES CALQUIPA SAC,0,0,9504.000000,21.8096378107070707,3157.89,0,207278.79775296,21.8096378107070707,0,,,,
Partner Locations/Vendors,Physical Locations/PARQU/Existencias,PARQU/Existencias,02,CRISTALES Y VIDRIOS,000.026.000.000,2.10x11.60 Mts,vidrio amarillo de prueba,2018-12-14,2018-12-14,12/2018,PARQU/IN/00001,,,"",TORRES PALACIOS EDUARDO EPIFANIO,2500.000,0,2500.000,680.4030000000000000,1701007.5,0,1701007.5,680.4030000000000000,0,,,,
,Physical Locations/PARQU/Existencias,PARQU/Existencias,00,CRISTALES Y VIDRIOS,000.026.000.000,2.10x11.60 Mts,vidrio amarillo de prueba,,2018-12-14,12/2018,"",,"",PO00051,TRANSPORTES CALQUIPA SAC,0,0,2500.000,683.0345760000000000,6578.94,0,1707586.44,683.0345760000000000,0,,,,
Partner Locations/Vendors,Physical Locations/PARQU/Existencias,PARQU/Existencias,02,CRISTAL,001.001.001.008,2.10x11.60 Mts,"Cristal Gris  3mm,China,1830x2440mm",2018-12-14,2018-12-14,12/2018,PARQU/IN/00001,,,"",TORRES PALACIOS EDUARDO EPIFANIO,2000.000,0,2000.000,340.2015000000000000,680403,0,680403,340.2015000000000000,0,,,,
,Physical Locations/PARQU/Existencias,PARQU/Existencias,00,CRISTAL,001.001.001.008,2.10x11.60 Mts,"Cristal Gris  3mm,China,1830x2440mm",,2018-12-14,12/2018,"",,"",PO00051,TRANSPORTES CALQUIPA SAC,0,0,2000.000,342.8330775000000000,5263.155,0,685666.155,342.8330775000000000,0,,,,
