Ubicación Origen,Ubicación Destino,Almacén,Tipo de operación,Categoria,Producto,Codigo P.,unidad,Fecha,Doc. Almacén,Entrada,Salida,pedido_compra
Partner Locations/Vendors,Physical Locations/Indep/Existencias,Physical Locations/Indep/Existencias,02,CRISTAL,"Cristal Gris 10mm,China",001.001.005.008,M2,2018-10-17,WH/IN/00006,211.860000,0,
Partner Locations/Vendors,Physical Locations/Indep/Existencias,Physical Locations/Indep/Existencias,02,PLANCHAS DE POLICARBONATO,"Policarbonato Poliglass Alveolar Transparente,6mm",003.004.022.003,M2,2018-10-18,WH/IN/00008,609.000000,0,
Physical Locations/Indep/Existencias,Partner Locations/Customers,Physical Locations/Indep/Existencias,01,PLANCHAS DE POLICARBONATO,"Policarbonato Poliglass Alveolar Transparente,6mm",003.004.022.003,M2,2018-10-18,WH/OUT/00007,0,487.200000,
Partner Locations/Vendors,Physical Locations/Indep/Existencias,Physical Locations/Indep/Existencias,02,PLANCHAS DE POLICARBONATO,"Policarbonato Poliglass Alveolar Blanco,6mm",003.004.024.003,M2,2018-10-18,WH/IN/00008,852.600000,0,
Physical Locations/Indep/Existencias,Partner Locations/Customers,Physical Locations/Indep/Existencias,01,PLANCHAS DE POLICARBONATO,"Policarbonato Poliglass Alveolar Blanco,6mm",003.004.024.003,M2,2018-10-18,WH/OUT/00006,0,48.720000,
Partner Locations/Vendors,Physical Locations/Indep/Existencias,Physical Locations/Indep/Existencias,02,PLANCHAS DE POLICARBONATO,"Policarbonato Poliglass Alveolar Gris Humo,6mm",003.004.025.003,M2,2018-10-18,WH/IN/00008,487.200000,0,
Partner Locations/Vendors,Physical Locations/Indep/Existencias,Physical Locations/Indep/Existencias,02,PLANCHAS DE POLICARBONATO,"Policarbonato Poliglass Alveolar Azul,6mm",003.004.026.003,M2,2018-10-18,WH/IN/00008,487.200000,0,
Partner Locations/Vendors,Physical Locations/Indep/Existencias,Physical Locations/Indep/Existencias,02,PLANCHAS DE POLICARBONATO,"Policarbonato Poliglass Alveolar Verde,6mm",003.004.027.003,M2,2018-10-18,WH/IN/00008,487.200000,0,
Physical Locations/Indep/Existencias,Partner Locations/Customers,Physical Locations/Indep/Existencias,01,PLANCHAS DE POLICARBONATO,"Policarbonato Poliglass Alveolar Verde,6mm",003.004.027.003,M2,2018-10-18,WH/OUT/00007,0,73.080000,
Physical Locations/Indep/Existencias,Partner Locations/Customers,Physical Locations/Indep/Existencias,01,PLANCHAS DE POLICARBONATO,"Policarbonato Poliglass Alveolar Verde,6mm",003.004.027.003,M2,2018-10-18,WH/OUT/00006,0,73.080000,
Partner Locations/Vendors,Physical Locations/Indep/Existencias,Physical Locations/Indep/Existencias,02,PLANCHAS DE POLICARBONATO,"Policarbonato Poliglass Alveolar Reflectivo Gris,6mm",003.004.028.003,M2,2018-10-18,WH/IN/00008,487.200000,0,
Partner Locations/Vendors,Physical Locations/Indep/Existencias,Physical Locations/Indep/Existencias,02,PLANCHAS DE POLICARBONATO,"Policarbonato Poliglass Alveolar Naranja,6mm",003.004.029.003,M2,2018-10-18,WH/IN/00008,121.800000,0,
Partner Locations/Vendors,Physical Locations/Indep/Existencias,Physical Locations/Indep/Existencias,02,PLANCHAS DE POLICARBONATO,"Policarbonato Poliglass Alveolar Turqueza,6mm",003.004.030.003,M2,2018-10-18,WH/IN/00008,487.200000,0,
Partner Locations/Vendors,Physical Locations/Indep/Existencias,Physical Locations/Indep/Existencias,02,PLANCHAS DE POLICARBONATO,"Policarbonato Poliglass Alveolar Amarillo,6mm",003.004.031.003,M2,2018-10-18,WH/IN/00008,243.600000,0,
Partner Locations/Vendors,Physical Locations/Indep/Existencias,Physical Locations/Indep/Existencias,02,PLANCHAS DE POLICARBONATO,"Policarbonato Poliglass Alveolar Bronce,6mm",003.004.037.003,M2,2018-10-18,WH/IN/00008,609.000000,0,
Partner Locations/Vendors,Physical Locations/Indep/Existencias,Physical Locations/Indep/Existencias,02,ACCESORIOS PARA POLICARBONATO,"Conector Terminal J 2.10 Mts. Poliglass Transparente,6mm",007.012.022.003,VRLLA,2018-10-18,WH/IN/00008,100.000,0,
Physical Locations/Indep/Existencias,Partner Locations/Customers,Physical Locations/Indep/Existencias,01,ACCESORIOS PARA POLICARBONATO,"Conector Terminal J 2.10 Mts. Poliglass Transparente,6mm",007.012.022.003,VRLLA,2018-10-18,WH/OUT/00007,0,50.000,
Partner Locations/Vendors,Physical Locations/Indep/Existencias,Physical Locations/Indep/Existencias,02,ANGULOS,Angulo L.I. 12.7mm A061.03 Plata Mate,005.011.033.000,MTO,2018-10-17,WH/IN/00007,597.000000,0,
Physical Locations/Indep/Existencias,Partner Locations/Customers,Physical Locations/Indep/Existencias,01,ANGULOS,Angulo L.I. 12.7mm A061.03 Plata Mate,005.011.033.000,MTO,2018-10-18,WH/OUT/00004,0,179.100000,
Partner Locations/Vendors,Physical Locations/Indep/Existencias,Physical Locations/Indep/Existencias,02,CANALES,Canal U P/Pisa Vidrio 12.7x12.7mm U074.13  Negro,008.014.034.000,MTO,2018-10-17,WH/IN/00007,597.000000,0,
Physical Locations/Indep/Existencias,Partner Locations/Customers,Physical Locations/Indep/Existencias,01,CANALES,Canal U P/Pisa Vidrio 12.7x12.7mm U074.13  Negro,008.014.034.000,MTO,2018-10-18,WH/OUT/00007,0,137.310000,
Partner Locations/Vendors,Physical Locations/Indep/Existencias,Physical Locations/Indep/Existencias,02,SISTEMA NOVA,  Nova Perfil H P/ventana 31.8x12.7mm LIM016.03   Plata Mate,009.015.033.000,MTO,2018-10-17,WH/IN/00007,179.100000,0,
Physical Locations/Indep/Existencias,Partner Locations/Customers,Physical Locations/Indep/Existencias,01,SISTEMA NOVA,  Nova Perfil H P/ventana 31.8x12.7mm LIM016.03   Plata Mate,009.015.033.000,MTO,2018-10-18,WH/OUT/00006,0,59.700000,
Partner Locations/Vendors,Physical Locations/Indep/Existencias,Physical Locations/Indep/Existencias,02,TUBOS ,Tubo Cuadrado 38.1mm TAE087.03  Plata Mate,010.016.033.000,MTO,2018-10-17,WH/IN/00007,298.500000,0,
Partner Locations/Vendors,Physical Locations/Indep/Existencias,Physical Locations/Indep/Existencias,02,TUBOS ,Tubo Rectangular 50x25mm T117.03   Plata Mate,010.017.033.000,MTO,2018-10-17,WH/IN/00007,119.400000,0,
Physical Locations/Indep/Existencias,Partner Locations/Customers,Physical Locations/Indep/Existencias,01,TUBOS ,Tubo Rectangular 50x25mm T117.03   Plata Mate,010.017.033.000,MTO,2018-10-18,WH/OUT/00007,0,89.550000,
Physical Locations/Indep/Existencias,Partner Locations/Customers,Physical Locations/Indep/Existencias,01,TUBOS ,Tubo Rectangular 50x25mm T117.03   Plata Mate,010.017.033.000,MTO,2018-10-18,WH/OUT/00004,0,17.910000,
Partner Locations/Vendors,Physical Locations/Indep/Existencias,Physical Locations/Indep/Existencias,02,TUBOS ,Tubo Rectangular 60.3x25.4mm T154.03   Plata Mate,010.018.033.000,MTO,2018-10-17,WH/IN/00007,119.400000,0,
Partner Locations/Vendors,Physical Locations/Indep/Existencias,Physical Locations/Indep/Existencias,02,TUBOS ,Tubo Rectangular 82.5x38.1mm LIMA015.03 Plata Mate,010.019.033.000,MTO,2018-10-17,WH/IN/00007,119.400000,0,
Physical Locations/Indep/Existencias,Partner Locations/Customers,Physical Locations/Indep/Existencias,01,TUBOS ,Tubo Rectangular 82.5x38.1mm LIMA015.03 Plata Mate,010.019.033.000,MTO,2018-10-18,WH/OUT/00004,0,59.700000,
